<?xml version="1.0" encoding="utf-8"?>
<!-- Generator: Adobe Illustrator 21.0.0, SVG Export Plug-In . SVG Version: 6.00 Build 0)  -->
<svg version="1.1" id="Layer_1" xmlns="http://www.w3.org/2000/svg" xmlns:xlink="http://www.w3.org/1999/xlink" x="0px" y="0px"
	 viewBox="0 0 600 600" enable-background="new 0 0 600 600" xml:space="preserve">
<path id="S1" fill="#1122F4" d="M407.39,281.41c3.75-3.61,10.59-2.44,12.92,2.25c4.52,8.54,5.24,18.85,2.69,28.12
	c-7.84-2.63-16.1-7.74-18.43-16.17C403.9,290.85,403.4,284.92,407.39,281.41 M473.55,258.59c1.85-0.66,4.4-0.4,4.79,1.93
	c1.09,6.25,0.41,12.8-1.9,18.72c-3.9-2.87-6.59-7.39-6.96-12.24C469.51,263.83,470.9,260.45,473.55,258.59 M453.21,282.81
	c1.44,6.53,6.67,11.06,11.81,14.85c-6.55,8-15.94,13.82-26.12,15.79c2.31-9.16,4.79-18.82,1.91-28.17
	c-2.25-8.47-8.32-16.33-16.81-19.15c-6.98-2-14.81-0.18-20.2,4.68c-7.54,6.77-11.1,17.22-10.49,27.21
	c-0.27,8.28,3.95,16.23,10.22,21.46c3.85,3.38,8.72,5.15,13.24,7.41c-3.68,4.61-8.28,8.86-14.09,10.47
	c-4.03,0.76-8.55,0.54-11.89-2.11c-6.56-4.85-8.61-13.51-9.15-21.24c-0.03-11.08,3.5-22.26,10.31-31.05
	c1.18-1.62,2.52-3.17,3.34-5.02c0.34-2.22-1.05-4.96-3.35-5.44c-2.43,0.11-4.41,1.8-6.32,3.14c-12.31,10.09-21.98,24.32-23.85,40.4
	c-0.47,2.33,0.15,5.18-1.8,6.96c-4.62,4.79-9.73,9.28-15.59,12.5c-2.36,1.03-5.52,3.03-7.58,0.41c-0.99-4.34,1.07-8.55,2.29-12.63
	c4.48-13.86,10.56-27.13,16.7-40.33c2.17-4.98,5.1-9.93,4.9-15.56c-5.4-3.62-12.29-1.68-17.97,0.21c-7.2,2.73-15.1,6.83-17.77,14.59
	c2.5,2.17,5.77,2.33,8.92,2.46c-3.62,8.67-8.14,16.93-11.51,25.71c-2.2,5.94-7.06,10.25-11.48,14.55
	c-5.27,4.54-10.31,9.86-17.09,12.05c-1.38,0.72-3.17,0.33-3.95-1.07c-0.89-3.66,0.24-7.39,1.34-10.87
	c4.52-14.06,10.45-27.62,16.76-40.95c2.16-4.49,3.59-9.6,2.46-14.57c-2.34-4.91-8.62-4.59-13.09-3.42
	c-15.84,4.43-28.77,15.35-40.18,26.76c2.27-7.07,5.19-13.94,7-21.15c0.84-2.27-0.25-4.76-2.24-6c-7.82-1.23-15.6,1.99-22.02,6.22
	c-3.72,2.71-8.57,6.06-7.39,11.36c2.41,0.22,4.83,0.36,7.25,0.53c-1.37,6.98-4.32,13.49-6.44,20.25c-1.65,4.26-2.4,9.14-5.69,12.55
	c-8.04,8.7-18.15,15.91-29.75,18.87c-7.56,1.91-16.4,1.5-22.61-3.68c-4.61-3.81-6.29-9.98-6.39-15.74
	c0.44-12.14,4.98-24.15,12.87-33.4c4.05-4.6,10.11-8.78,16.52-6.85c3.68,2.75,4.04,7.95,2.66,12.02
	c-3.64,12.77-13.83,22.17-23.74,30.37c-2.26,1.91-4.95,5.28-2.4,8.08c2.26,1.01,4.88,0.58,7.02-0.51
	c12.54-6,23.85-14.65,32.61-25.46c2.62-3.44,4.89-7.18,6.4-11.24c1.89-5.89,1.31-13.01-3.32-17.52c-6.48-6.98-16.95-6.87-25.64-5.42
	c-24.49,4.69-42.74,28.37-43.55,52.88c-0.39,8.14,2.53,16.58,8.52,22.23c8.04,7.99,20.34,10.44,31.23,8.46
	c13.01-1.83,24.71-8.56,34.98-16.45c-0.91,4.02-2.62,7.82-3.44,11.87c-0.81,3.12,2.6,5.65,5.47,5.23
	c6.95-0.94,13.12-5.75,16.35-11.89c3.52-7.71,4.84-16.4,9.65-23.52c6.74-10.29,15.52-19.14,25.28-26.58
	c2.74-2.08,5.84-3.81,9.34-4.11c-0.01,2.88-0.79,5.68-2.16,8.22c-6.04,12.04-11.73,24.46-14.37,37.75
	c-1.13,5.05-0.31,10.7,2.78,14.92c3.87,5.08,11.1,6.21,16.95,4.47c10.29-2.8,18.57-9.89,26.49-16.69c0.74,4.36,0.9,9.29,4.03,12.74
	c4.2,4.93,11.56,5.56,17.44,3.8c10.08-2.99,18.2-10.01,26.09-16.65c2.06,4.14,4.28,8.38,7.91,11.39c6.13,5.36,14.81,7.11,22.7,5.72
	c13.29-1.8,25.25-9.43,33.92-19.46c2.38-3.43,6.95-2.64,10.47-3.83c14.37-4.23,25.79-14.51,35.86-25.17
	c4.59,1.62,9.4,2.45,14.19,3.32c-6.44,6.13-12.93,12.89-15.36,21.7c-2.74,7.99,1.25,17.37,8.49,21.49
	c5.44,3.2,12.17,2.82,17.95,0.79c12.26-4.46,21.85-13.76,30.51-23.19c3.85-4.12,7.01-9.02,11.79-12.17
	c1.76-1.33,4.08-0.87,6.14-0.96c0.04,2.27,0.32,4.61-0.35,6.82c-4.46,13.35-14.35,24.61-26.76,31.16
	c-17.92,9.61-38.38,12.7-58.32,14.99c-9.37,0.28-18.67,1.51-28.05,1.28c-10.64,0.96-21.33,0.55-32,0.63c-58.33,0-116.67,0-175,0
	c-18.16,0.18-36.33-0.37-54.47,0.28c-0.58,1.99-2.17,5.34,0.79,6.17c11.59,5.43,23.59,10.99,32.61,20.34
	c2.68,3.07,5.93,7.09,4.4,11.44c-1.15,2.83-2.18,5.73-2.23,8.84c2.22,0.68,4.52,1.17,6.86,1.09c51.02-0.16,102.03,0.13,153.04-0.15
	c43.35-1.95,87.13-9.33,126.88-27.39c17.5-8.1,34.21-18.44,47.85-32.18c9.16-9.27,16.87-20.15,21.63-32.33
	c2.23-6.22,3.66-13.81-0.06-19.75c-3.58-5.36-11.19-6.27-16.9-4.25c-9.29,3.11-15.84,10.8-22.05,17.95
	c-6.76,7.09-14.27,13.88-23.36,17.79c-2.8,1.02-6.63,2.48-9-0.13c-3.09-3.76-1.3-8.89,0.29-12.89c4.25-9.38,11.62-16.81,18.75-24.04
	c4.43-3.98,1.59-12.19-4.17-12.97c-7.25-1.29-14.74,0.17-21.95-1.55c1.52-5.21,4.21-10.07,4.99-15.49
	c0.76-4.94,1.47-10.42-1.09-14.96c-2.84-4.63-8.72-6.49-13.88-5.33C460.88,251.14,449.65,267.57,453.21,282.81 M356.3,223.12
	c-6.66,1.66-12.62,7.21-13.86,14.07c-1.08,6.2,4.61,11.62,10.52,12.06c8.77,0.51,17.26-6.57,18.39-15.28
	c0.36-3.05-0.95-6.12-2.95-8.36C365.22,222.64,360.39,222.05,356.3,223.12 M137.29,165.85c-13.94,0.74-27.72,4.72-39.89,11.57
	c-11.44,6.51-21.43,16.24-26.4,28.59c-6.26,14.95-4.22,32.23,2.3,46.73c7.9,17.89,21.25,32.47,33.66,47.3
	c4.73,5.82,9.55,11.87,11.93,19.09c2.64,10.18,0.11,21.8-7.5,29.28c-9.21,8.83-22.97,12.44-35.34,9.32
	c-5.96-1.84-11.53-5.63-14.7-11.09c-2.34-3.96-2.44-8.81-1.76-13.23c2.47-11.32,18.88-16.39,27.03-8.03
	c3.81,3.53,4.54,8.87,6.63,13.37c0.8,1.96,3.46,3.58,5.38,2.11c4.23-2.2,5.57-7.42,5.22-11.85c0.02-7.75-6.28-13.93-13.07-16.66
	c-7.91-3.01-16.73-3.73-25.01-1.9c-8.63,1.52-16.93,6.07-22.02,13.33c-5.06,7.43-7.06,17.46-3.27,25.86
	c3.47,8.4,11.32,14.14,19.65,17.17c10.45,3.62,21.86,4.7,32.74,2.61c16.68-2.84,32.34-13.32,39.84-28.71
	c4.92-9.58,6.03-20.71,4.58-31.27c-1.95-9.29-7.2-17.43-12.62-25.06c-10.42-14.31-22.98-27.37-30.23-43.74
	c-3.42-7.39-5.31-15.45-5.68-23.58c-0.34-8.43,2.07-17.17,7.74-23.57c8.07-9.27,20.24-13.7,32.08-15.65
	c8.43-0.87,17.53-1,25.05,3.52c8.48,4.45,13.36,14.26,12.6,23.69c-0.65,6.39-2.34,12.83-6.06,18.15c-5.39,7.7-14.22,12.66-23.4,14.2
	c-8.34,0.71-16.84,0.66-25.03-1.27c-2.16-0.71-4.96,0.47-5.21,2.92c0.97,3.82,4.82,5.76,8.07,7.37c6.41,2.77,13.37,4.47,20.39,4.33
	c25.21,1.57,50.42-18.33,53.36-43.7c1.41-10.8-3.46-21.75-11.55-28.82C166.09,168.86,151.37,164.61,137.29,165.85 M73.01,176.03
	c18.65-17.71,44.67-25.77,69.99-26.29c16.98,0.87,34.36,6.42,46.51,18.76c8.69,8.58,13.89,20.34,14.68,32.51
	c0.33,16.13-6.24,32.19-17.52,43.71c-3.92,3.89-7.84,7.92-12.64,10.73c12.34-5.41,26.61-7.63,39.76-3.94
	c5.71,1.6,10.75,4.94,15.09,8.92c8.73-6.4,19.3-10.26,30.12-10.81c6.83-0.18,13.15,3.21,17.7,8.14
	c10.61-5.62,23.36-10.73,35.32-6.43c4.59,1.46,8.09,4.98,11.14,8.56c2.99-1.54,5.88-3.28,8.92-4.72c-1.8-3.94-4.55-7.65-4.74-12.12
	c-0.22-4.86-0.54-9.96,1.44-14.53c4.21-10.63,14.11-18.59,25.22-21.01c6.21-0.57,12.81-0.82,18.48,2.22
	c5.44,2.42,9.81,6.94,12.17,12.39c2.72,4.85,2.07,10.6,1.88,15.92c-1.23,8.5-6.98,15.43-13.34,20.81c0.83,1.56,1.65,3.14,2.44,4.73
	c5.2-4.08,11.54-7.66,18.38-6.9c3.17,0.37,5.44-2.34,8.23-3.37c12.48-6.23,28.05-4.12,38.89,4.51c5.59-10.53,14.55-19.6,25.95-23.6
	c6.83-2.69,14.6-3.49,21.56-0.81c7.9,2.6,14.43,9.02,17.05,16.93c2.44,6.07,1.52,12.68,1.42,19.04
	c11.75-0.13,21.84,10.08,22.54,21.64c8.4-5.65,18.73-9.95,28.99-7.73c9.14,1.29,17.61,7.37,21.07,16.04
	c3.48,8.72,2.67,18.57,0.09,27.42c-6.4,18.09-18.25,33.92-32.52,46.58c-26.83,23.48-60.73,37.14-94.91,45.9
	c-22.54,5.52-45.53,9.33-68.7,10.6c-19.16,2.08-38.44,1.41-57.67,1.51c-38.02,0-76.03,0-114.05,0c-7.05-0.31-14.65-3.8-17.6-10.58
	c-2.79-5.17-2.42-11.47-0.59-16.89c-8.03-7.06-17.76-11.71-27.45-16.01c-5.59-2.4-9.34-7.99-10.3-13.9
	c-1.08-4.38,0.69-8.71,2.02-12.83c-4.86-2.47-8.98-6.04-13.38-9.2c-11.06,18.64-31.34,30.66-52.62,33.44
	c-12.27,1.03-24.91,0.65-36.56-3.72c-12.81-4.42-24.6-13.56-29.73-26.39c-4.29-11.18-3.4-24.05,1.68-34.82
	c5.94-12.05,17.51-20.81,30.39-24.28c7.51-2.66,15.59-1.71,23.39-1.88c-2.86-4.57-6.5-8.58-9.5-13.06
	C60,264.87,51.25,245.44,51.58,225C51.4,206.59,59.65,188.56,73.01,176.03"/>
<path id="S2" fill="#07FF00" d="M265.08,393.7c1.05-0.12,2.11-0.23,3.17-0.34c0.59-3.47,1.19-6.94,1.46-10.45
	C267.68,386.28,266.09,389.9,265.08,393.7 M266.5,381.47c0.99-3.03,4.68-1.74,7.04-2.06c-0.1,7.61-1.44,15.13-2.58,22.64
	c-0.77,0.13-2.31,0.38-3.07,0.51c-0.28-1.93-0.53-3.87-0.79-5.79c-0.78-0.03-2.34-0.08-3.11-0.11c-1.09,1.81-2.17,3.62-3.23,5.45
	c-0.82,0.03-2.45,0.09-3.26,0.12C259.91,395.07,263.44,388.36,266.5,381.47 M396.6,383.6c-2.17,4.91-3.36,10.2-4.42,15.44
	c1.29-0.26,2.61-0.46,3.88-0.87c1.94-5.21,3.63-10.6,4.06-16.17C398.99,382.5,397.15,382.25,396.6,383.6 M391.82,384.78
	c0.68-2.5,2.29-5.51,5.29-5.42c2.58-0.13,7.25-0.71,7.58,2.84c-1.01,5.95-2.76,11.86-5.11,17.42c-2.28,4.05-7.57,2.74-11.24,1.88
	C387.92,395.69,390.3,390.26,391.82,384.78 M377.06,386.23c0.02-2.79,1-6.29,4.22-6.77c2.73-0.21,7.18-1.04,7.78,2.71
	c-0.32,3.35-1.09,6.93-3.23,9.62c-1.99,1.52-4.68,1.55-7.02,2.2c-0.57,1.48-1.13,2.97-1.7,4.46c2.23,0.2,4.47,0.38,6.71,0.6
	c-0.02,0.76-0.06,2.29-0.08,3.05c-3.78,0.29-7.58,0.32-11.36,0.12c0.83-3.76,1.31-7.9,3.76-11.01c2.03-1.59,4.82-1.56,7.25-2.12
	c0.42-2.23,0.84-4.47,1.19-6.7C382.14,383.81,379.74,385.32,377.06,386.23 M366.51,382.59c-2.01,5.26-3.7,10.67-4.48,16.25
	c1.16-0.1,2.32-0.21,3.49-0.31c1.85-5.3,3.66-10.66,4.39-16.25C368.77,382.38,367.64,382.48,366.51,382.59 M364.72,379.82
	c3.38-1.02,7.29-0.87,10.14,1.41c-1.49,5.64-3.04,11.28-4.93,16.8c-1.21,5.31-9.91,6.16-12.49,1.7c0.42-4.18,2.06-8.12,3.14-12.16
	C361.51,384.82,362.04,381.46,364.72,379.82 M346.05,386.06c0.78-2.7,1.83-6.39,5.2-6.65c2.49-0.15,5.99-0.74,7.34,2
	c0.16,3.37-0.92,6.75-2.57,9.67c-1.15,2.01-3.87,1.72-5.79,2.46c-2.54,0.07-2.51,3.14-3.3,4.92c2.12,0.17,4.25,0.32,6.39,0.48
	c0,0.82,0,2.48,0,3.3c-3.78,0.17-7.56,0.16-11.32-0.15c0.75-3.64,1.18-7.61,3.45-10.67c2.07-1.79,5.04-1.85,7.57-2.59
	c0.58-2.29,1.14-4.67,0.39-6.99C351.36,383.91,349.15,386.01,346.05,386.06 M330.2,379.39c3.22-0.02,6.45-0.02,9.68,0.03
	c-0.2,0.89-0.38,1.79-0.56,2.69c-1.99,0.31-4.04,0.44-5.93,1.17c-1.06,1.59-1.12,3.6-1.56,5.42c1.78,0.38,3.55,0.77,5.33,1.17
	c-1.3,2.67-4.26,3.05-6.88,3.56c-0.9,2.78-1.58,5.65-2.8,8.32c-1.34,0.46-2.76,0.53-4.14,0.72
	C325.58,394.76,327.74,387.03,330.2,379.39 M317.65,382.66c-1.9,5.34-3.68,10.76-4.51,16.39c1.37-0.46,3.49-0.04,3.99-1.8
	c1.89-4.81,3.26-9.86,3.81-15.02C319.84,382.37,318.74,382.51,317.65,382.66 M313.55,382.51c1.58-4.01,6.55-3.46,10-2.91
	c3.26,1.08,1.68,4.8,1.1,7.17c-1.46,4.45-2.18,9.23-4.57,13.31c-2.85,3.67-8.64,2.79-11.81-0.01
	C310.01,394.21,311.26,388.18,313.55,382.51 M295.61,379.67c2.45-0.43,5.28-0.84,7.58,0.26c2.39,1.38,0.87,4.19,0.63,6.28
	c-2.9-0.08-4-3.75-6.78-3.49c-0.6,1.61-1.03,3.27-1.49,4.92c2.02,1.18,4.62,1.81,6.04,3.79c0.19,3.04-0.58,6.27-2.42,8.73
	c-2.06,2.74-5.99,2.61-8.97,1.83c-2.91-1.13-1.72-4.53-1.28-6.78c2.43,1.01,4.6,2.49,6.76,3.98c0.6-1.92,1.19-3.84,1.77-5.77
	c-2.13-1.13-4.5-1.96-6.21-3.71C291.45,386.09,292.34,381.77,295.61,379.67 M280.78,379.89c2.39-0.93,5.12-0.69,7.61-0.26
	c2.31,1.38,1.53,4.2,1.21,6.36c-2.91,0.06-4.24-2.6-6.46-3.91c-0.94,1.75-1.53,3.65-2.09,5.55c2.19,1.16,4.41,2.25,6.59,3.45
	c-0.7,3.6-1.09,7.92-4.28,10.29c-3.33,2.1-7.54,0.98-10.38-1.41c0.64-1.43,1.24-2.87,2.03-4.22c2.16-0.55,3.16,1.77,4.52,2.97
	c0.54,0,1.61-0.02,2.14-0.02c0.39-1.81,0.77-3.61,1.12-5.42c-2.19-1.1-4.4-2.14-6.55-3.3C277.25,386.47,277.6,382.19,280.78,379.89
	 M252.77,379.62c1.36-0.15,2.72-0.27,4.08-0.36c-1.11,6.41-3.93,12.4-4.8,18.87c1.69,1.02,5.97,1.03,4.06,3.9
	c-3.16,0.54-6.39,0.31-9.57,0.17C248.18,394.56,250.89,387.2,252.77,379.62 M237.54,381.58c1.64-2.9,5.42-2.33,8.21-2.16
	c3.25,0.01,3.78,4.34,2.13,6.42c-1,0.57-2.13,0.84-3.2,1.23c-0.43-1.76-0.86-3.52-1.32-5.26c-1.01,0.79-2.38,1.33-2.79,2.67
	c-1.82,4.73-3.29,9.68-3.57,14.77c2.23-0.82,3.88-2.49,5.24-4.38c0.68,0.08,2.06,0.25,2.74,0.34c-0.51,2.66-1.36,5.69-4.17,6.78
	c-2.32,0.61-5.12,0.82-7.23-0.51c-2.17-1.52-0.89-4.37-0.48-6.42C234.59,390.57,235.36,385.79,237.54,381.58"/>
<path id="S3" fill="#FF0000" d="M265.08,393.7c1.01-3.8,2.6-7.42,4.63-10.79c-0.27,3.51-0.87,6.98-1.46,10.45
	C267.19,393.47,266.13,393.58,265.08,393.7 M396.6,383.6c0.55-1.35,2.39-1.1,3.52-1.6c-0.43,5.57-2.12,10.96-4.06,16.17
	c-1.27,0.41-2.59,0.61-3.88,0.87C393.24,393.8,394.43,388.51,396.6,383.6 M366.51,382.59c1.13-0.11,2.26-0.21,3.4-0.31
	c-0.73,5.59-2.54,10.95-4.39,16.25c-1.17,0.1-2.33,0.21-3.49,0.31C362.81,393.26,364.5,387.85,366.51,382.59 M317.65,382.66
	c1.09-0.15,2.19-0.29,3.29-0.43c-0.55,5.16-1.92,10.21-3.81,15.02c-0.5,1.76-2.62,1.34-3.99,1.8
	C313.97,393.42,315.75,388,317.65,382.66 M266.5,381.47c-3.06,6.89-6.59,13.6-9,20.76c0.81-0.03,2.44-0.09,3.26-0.12
	c1.06-1.83,2.14-3.64,3.23-5.45c0.77,0.03,2.33,0.08,3.11,0.11c0.26,1.92,0.51,3.86,0.79,5.79c0.76-0.13,2.3-0.38,3.07-0.51
	c1.14-7.51,2.48-15.03,2.58-22.64C271.18,379.73,267.49,378.44,266.5,381.47 M391.82,384.78c-1.52,5.48-3.9,10.91-3.48,16.72
	c3.67,0.86,8.96,2.17,11.24-1.88c2.35-5.56,4.1-11.47,5.11-17.42c-0.33-3.55-5-2.97-7.58-2.84
	C394.11,379.27,392.5,382.28,391.82,384.78 M377.06,386.23c2.68-0.91,5.08-2.42,7.52-3.84c-0.35,2.23-0.77,4.47-1.19,6.7
	c-2.43,0.56-5.22,0.53-7.25,2.12c-2.45,3.11-2.93,7.25-3.76,11.01c3.78,0.2,7.58,0.17,11.36-0.12c0.02-0.76,0.06-2.29,0.08-3.05
	c-2.24-0.22-4.48-0.4-6.71-0.6c0.57-1.49,1.13-2.98,1.7-4.46c2.34-0.65,5.03-0.68,7.02-2.2c2.14-2.69,2.91-6.27,3.23-9.62
	c-0.6-3.75-5.05-2.92-7.78-2.71C378.06,379.94,377.08,383.44,377.06,386.23 M364.72,379.82c-2.68,1.64-3.21,5-4.14,7.75
	c-1.08,4.04-2.72,7.98-3.14,12.16c2.58,4.46,11.28,3.61,12.49-1.7c1.89-5.52,3.44-11.16,4.93-16.8
	C372.01,378.95,368.1,378.8,364.72,379.82 M346.05,386.06c3.1-0.05,5.31-2.15,7.36-4.22c0.75,2.32,0.19,4.7-0.39,6.99
	c-2.53,0.74-5.5,0.8-7.57,2.59c-2.27,3.06-2.7,7.03-3.45,10.67c3.76,0.31,7.54,0.32,11.32,0.15c0-0.82,0-2.48,0-3.3
	c-2.14-0.16-4.27-0.31-6.39-0.48c0.79-1.78,0.76-4.85,3.3-4.92c1.92-0.74,4.64-0.45,5.79-2.46c1.65-2.92,2.73-6.3,2.57-9.67
	c-1.35-2.74-4.85-2.15-7.34-2C347.88,379.67,346.83,383.36,346.05,386.06 M330.2,379.39c-2.46,7.64-4.62,15.37-6.86,23.08
	c1.38-0.19,2.8-0.26,4.14-0.72c1.22-2.67,1.9-5.54,2.8-8.32c2.62-0.51,5.58-0.89,6.88-3.56c-1.78-0.4-3.55-0.79-5.33-1.17
	c0.44-1.82,0.5-3.83,1.56-5.42c1.89-0.73,3.94-0.86,5.93-1.17c0.18-0.9,0.36-1.8,0.56-2.69
	C336.65,379.37,333.42,379.37,330.2,379.39 M313.55,382.51c-2.29,5.67-3.54,11.7-5.28,17.56c3.17,2.8,8.96,3.68,11.81,0.01
	c2.39-4.08,3.11-8.86,4.57-13.31c0.58-2.37,2.16-6.09-1.1-7.17C320.1,379.05,315.13,378.5,313.55,382.51 M295.61,379.67
	c-3.27,2.1-4.16,6.42-4.37,10.04c1.71,1.75,4.08,2.58,6.21,3.71c-0.58,1.93-1.17,3.85-1.77,5.77c-2.16-1.49-4.33-2.97-6.76-3.98
	c-0.44,2.25-1.63,5.65,1.28,6.78c2.98,0.78,6.91,0.91,8.97-1.83c1.84-2.46,2.61-5.69,2.42-8.73c-1.42-1.98-4.02-2.61-6.04-3.79
	c0.46-1.65,0.89-3.31,1.49-4.92c2.78-0.26,3.88,3.41,6.78,3.49c0.24-2.09,1.76-4.9-0.63-6.28
	C300.89,378.83,298.06,379.24,295.61,379.67 M280.78,379.89c-3.18,2.3-3.53,6.58-4.54,10.08c2.15,1.16,4.36,2.2,6.55,3.3
	c-0.35,1.81-0.73,3.61-1.12,5.42c-0.53,0-1.6,0.02-2.14,0.02c-1.36-1.2-2.36-3.52-4.52-2.97c-0.79,1.35-1.39,2.79-2.03,4.22
	c2.84,2.39,7.05,3.51,10.38,1.41c3.19-2.37,3.58-6.69,4.28-10.29c-2.18-1.2-4.4-2.29-6.59-3.45c0.56-1.9,1.15-3.8,2.09-5.55
	c2.22,1.31,3.55,3.97,6.46,3.91c0.32-2.16,1.1-4.98-1.21-6.36C285.9,379.2,283.17,378.96,280.78,379.89 M252.77,379.62
	c-1.88,7.58-4.59,14.94-6.23,22.58c3.18,0.14,6.41,0.37,9.57-0.17c1.91-2.87-2.37-2.88-4.06-3.9c0.87-6.47,3.69-12.46,4.8-18.87
	C255.49,379.35,254.13,379.47,252.77,379.62 M237.54,381.58c-2.18,4.21-2.95,8.99-4.44,13.48c-0.41,2.05-1.69,4.9,0.48,6.42
	c2.11,1.33,4.91,1.12,7.23,0.51c2.81-1.09,3.66-4.12,4.17-6.78c-0.68-0.09-2.06-0.26-2.74-0.34c-1.36,1.89-3.01,3.56-5.24,4.38
	c0.28-5.09,1.75-10.04,3.57-14.77c0.41-1.34,1.78-1.88,2.79-2.67c0.46,1.74,0.89,3.5,1.32,5.26c1.07-0.39,2.2-0.66,3.2-1.23
	c1.65-2.08,1.12-6.41-2.13-6.42C242.96,379.25,239.18,378.68,237.54,381.58 M407.39,281.41c-3.99,3.51-3.49,9.44-2.82,14.2
	c2.33,8.43,10.59,13.54,18.43,16.17c2.55-9.27,1.83-19.58-2.69-28.12C417.98,278.97,411.14,277.8,407.39,281.41 M473.55,258.59
	c-2.65,1.86-4.04,5.24-4.07,8.41c0.37,4.85,3.06,9.37,6.96,12.24c2.31-5.92,2.99-12.47,1.9-18.72
	C477.95,258.19,475.4,257.93,473.55,258.59 M453.21,282.81c-3.56-15.24,7.67-31.67,22.72-35.01c5.16-1.16,11.04,0.7,13.88,5.33
	c2.56,4.54,1.85,10.02,1.09,14.96c-0.78,5.42-3.47,10.28-4.99,15.49c7.21,1.72,14.7,0.26,21.95,1.55c5.76,0.78,8.6,8.99,4.17,12.97
	c-7.13,7.23-14.5,14.66-18.75,24.04c-1.59,4-3.38,9.13-0.29,12.89c2.37,2.61,6.2,1.15,9,0.13c9.09-3.91,16.6-10.7,23.36-17.79
	c6.21-7.15,12.76-14.84,22.05-17.95c5.71-2.02,13.32-1.11,16.9,4.25c3.72,5.94,2.29,13.53,0.06,19.75
	c-4.76,12.18-12.47,23.06-21.63,32.33c-13.64,13.74-30.35,24.08-47.85,32.18c-39.75,18.06-83.53,25.44-126.88,27.39
	c-51.01,0.28-102.02-0.01-153.04,0.15c-2.34,0.08-4.64-0.41-6.86-1.09c0.05-3.11,1.08-6.01,2.23-8.84c1.53-4.35-1.72-8.37-4.4-11.44
	c-9.02-9.35-21.02-14.91-32.61-20.34c-2.96-0.83-1.37-4.18-0.79-6.17c18.14-0.65,36.31-0.1,54.47-0.28c58.33,0,116.67,0,175,0
	c10.67-0.08,21.36,0.33,32-0.63c9.38,0.23,18.68-1,28.05-1.28c19.94-2.29,40.4-5.38,58.32-14.99c12.41-6.55,22.3-17.81,26.76-31.16
	c0.67-2.21,0.39-4.55,0.35-6.82c-2.06,0.09-4.38-0.37-6.14,0.96c-4.78,3.15-7.94,8.05-11.79,12.17
	c-8.66,9.43-18.25,18.73-30.51,23.19c-5.78,2.03-12.51,2.41-17.95-0.79c-7.24-4.12-11.23-13.5-8.49-21.49
	c2.43-8.81,8.92-15.57,15.36-21.7c-4.79-0.87-9.6-1.7-14.19-3.32c-10.07,10.66-21.49,20.94-35.86,25.17
	c-3.52,1.19-8.09,0.4-10.47,3.83c-8.67,10.03-20.63,17.66-33.92,19.46c-7.89,1.39-16.57-0.36-22.7-5.72
	c-3.63-3.01-5.85-7.25-7.91-11.39c-7.89,6.64-16.01,13.66-26.09,16.65c-5.88,1.76-13.24,1.13-17.44-3.8
	c-3.13-3.45-3.29-8.38-4.03-12.74c-7.92,6.8-16.2,13.89-26.49,16.69c-5.85,1.74-13.08,0.61-16.95-4.47
	c-3.09-4.22-3.91-9.87-2.78-14.92c2.64-13.29,8.33-25.71,14.37-37.75c1.37-2.54,2.15-5.34,2.16-8.22c-3.5,0.3-6.6,2.03-9.34,4.11
	c-9.76,7.44-18.54,16.29-25.28,26.58c-4.81,7.12-6.13,15.81-9.65,23.52c-3.23,6.14-9.4,10.95-16.35,11.89
	c-2.87,0.42-6.28-2.11-5.47-5.23c0.82-4.05,2.53-7.85,3.44-11.87c-10.27,7.89-21.97,14.62-34.98,16.45
	c-10.89,1.98-23.19-0.47-31.23-8.46c-5.99-5.65-8.91-14.09-8.52-22.23c0.81-24.51,19.06-48.19,43.55-52.88
	c8.69-1.45,19.16-1.56,25.64,5.42c4.63,4.51,5.21,11.63,3.32,17.52c-1.51,4.06-3.78,7.8-6.4,11.24
	c-8.76,10.81-20.07,19.46-32.61,25.46c-2.14,1.09-4.76,1.52-7.02,0.51c-2.55-2.8,0.14-6.17,2.4-8.08c9.91-8.2,20.1-17.6,23.74-30.37
	c1.38-4.07,1.02-9.27-2.66-12.02c-6.41-1.93-12.47,2.25-16.52,6.85c-7.89,9.25-12.43,21.26-12.87,33.4
	c0.1,5.76,1.78,11.93,6.39,15.74c6.21,5.18,15.05,5.59,22.61,3.68c11.6-2.96,21.71-10.17,29.75-18.87
	c3.29-3.41,4.04-8.29,5.69-12.55c2.12-6.76,5.07-13.27,6.44-20.25c-2.42-0.17-4.84-0.31-7.25-0.53c-1.18-5.3,3.67-8.65,7.39-11.36
	c6.42-4.23,14.2-7.45,22.02-6.22c1.99,1.24,3.08,3.73,2.24,6c-1.81,7.21-4.73,14.08-7,21.15c11.41-11.41,24.34-22.33,40.18-26.76
	c4.47-1.17,10.75-1.49,13.09,3.42c1.13,4.97-0.3,10.08-2.46,14.57c-6.31,13.33-12.24,26.89-16.76,40.95
	c-1.1,3.48-2.23,7.21-1.34,10.87c0.78,1.4,2.57,1.79,3.95,1.07c6.78-2.19,11.82-7.51,17.09-12.05c4.42-4.3,9.28-8.61,11.48-14.55
	c3.37-8.78,7.89-17.04,11.51-25.71c-3.15-0.13-6.42-0.29-8.92-2.46c2.67-7.76,10.57-11.86,17.77-14.59
	c5.68-1.89,12.57-3.83,17.97-0.21c0.2,5.63-2.73,10.58-4.9,15.56c-6.14,13.2-12.22,26.47-16.7,40.33
	c-1.22,4.08-3.28,8.29-2.29,12.63c2.06,2.62,5.22,0.62,7.58-0.41c5.86-3.22,10.97-7.71,15.59-12.5c1.95-1.78,1.33-4.63,1.8-6.96
	c1.87-16.08,11.54-30.31,23.85-40.4c1.91-1.34,3.89-3.03,6.32-3.14c2.3,0.48,3.69,3.22,3.35,5.44c-0.82,1.85-2.16,3.4-3.34,5.02
	c-6.81,8.79-10.34,19.97-10.31,31.05c0.54,7.73,2.59,16.39,9.15,21.24c3.34,2.65,7.86,2.87,11.89,2.11
	c5.81-1.61,10.41-5.86,14.09-10.47c-4.52-2.26-9.39-4.03-13.24-7.41c-6.27-5.23-10.49-13.18-10.22-21.46
	c-0.61-9.99,2.95-20.44,10.49-27.21c5.39-4.86,13.22-6.68,20.2-4.68c8.49,2.82,14.56,10.68,16.81,19.15
	c2.88,9.35,0.4,19.01-1.91,28.17c10.18-1.97,19.57-7.79,26.12-15.79C459.88,293.87,454.65,289.34,453.21,282.81 M356.3,223.12
	c4.09-1.07,8.92-0.48,12.1,2.49c2,2.24,3.31,5.31,2.95,8.36c-1.13,8.71-9.62,15.79-18.39,15.28c-5.91-0.44-11.6-5.86-10.52-12.06
	C343.68,230.33,349.64,224.78,356.3,223.12 M137.29,165.85c14.08-1.24,28.8,3.01,39.51,12.38c8.09,7.07,12.96,18.02,11.55,28.82
	c-2.94,25.37-28.15,45.27-53.36,43.7c-7.02,0.14-13.98-1.56-20.39-4.33c-3.25-1.61-7.1-3.55-8.07-7.37
	c0.25-2.45,3.05-3.63,5.21-2.92c8.19,1.93,16.69,1.98,25.03,1.27c9.18-1.54,18.01-6.5,23.4-14.2c3.72-5.32,5.41-11.76,6.06-18.15
	c0.76-9.43-4.12-19.24-12.6-23.69c-7.52-4.52-16.62-4.39-25.05-3.52c-11.84,1.95-24.01,6.38-32.08,15.65
	c-5.67,6.4-8.08,15.14-7.74,23.57c0.37,8.13,2.26,16.19,5.68,23.58c7.25,16.37,19.81,29.43,30.23,43.74
	c5.42,7.63,10.67,15.77,12.62,25.06c1.45,10.56,0.34,21.69-4.58,31.27c-7.5,15.39-23.16,25.87-39.84,28.71
	c-10.88,2.09-22.29,1.01-32.74-2.61c-8.33-3.03-16.18-8.77-19.65-17.17c-3.79-8.4-1.79-18.43,3.27-25.86
	c5.09-7.26,13.39-11.81,22.02-13.33c8.28-1.83,17.1-1.11,25.01,1.9c6.79,2.73,13.09,8.91,13.07,16.66
	c0.35,4.43-0.99,9.65-5.22,11.85c-1.92,1.47-4.58-0.15-5.38-2.11c-2.09-4.5-2.82-9.84-6.63-13.37c-8.15-8.36-24.56-3.29-27.03,8.03
	c-0.68,4.42-0.58,9.27,1.76,13.23c3.17,5.46,8.74,9.25,14.7,11.09c12.37,3.12,26.13-0.49,35.34-9.32c7.61-7.48,10.14-19.1,7.5-29.28
	c-2.38-7.22-7.2-13.27-11.93-19.09c-12.41-14.83-25.76-29.41-33.66-47.3c-6.52-14.5-8.56-31.78-2.3-46.73
	c4.97-12.35,14.96-22.08,26.4-28.59C109.57,170.57,123.35,166.59,137.29,165.85"/>
</svg>
