<?xml version="1.0" encoding="utf-8"?>
<!-- Generator: Adobe Illustrator 21.0.0, SVG Export Plug-In . SVG Version: 6.00 Build 0)  -->
<svg version="1.1" id="Layer_1" xmlns="http://www.w3.org/2000/svg" xmlns:xlink="http://www.w3.org/1999/xlink" x="0px" y="0px"
	 viewBox="0 0 600 600" enable-background="new 0 0 600 600" xml:space="preserve">
<path id="S1" fill="#1313EA" d="M309.26,468.81c9.1-0.92,18.14-2.57,27.28-3.09c1.11,3.66,1.08,7.51,1.14,11.31
	c-1.67,0.05-3.33,0.11-4.99,0.17c-0.22-1.8-0.56-3.57-1.07-5.31c-1.48,0.14-2.95,0.27-4.42,0.4c-0.45,8.73,1.7,17.25,2.38,25.89
	c1.59-0.02,3.18-0.04,4.78-0.04c0.12,1.9,0.23,3.82,0.34,5.73c-5.03,0.44-9.99,1.61-15.07,1.43c-0.08-1.72-0.17-3.43-0.25-5.13
	c1.48-0.36,2.95-0.74,4.42-1.14c-0.31-3.84-1.16-7.59-1.62-11.4c-0.87-4.6-0.56-9.34-1.7-13.9c-1.71,0.06-3.42,0.13-5.13,0.18
	c0.06,1.97,0.13,3.93,0.19,5.91c-1.68,0.11-3.35,0.24-5.02,0.36C309.62,476.45,309.34,472.63,309.26,468.81 M262.23,465.72
	c4.82-0.02,9.69,0.09,14.41,1.19c-0.09,1.62-0.18,3.24-0.26,4.86c-1.44,0.4-2.88,0.83-4.31,1.28c1.49,3.86,2.84,7.77,4.31,11.64
	c2.83-3.24,5.09-6.91,7.55-10.42c-1.2-0.52-2.39-1.02-3.59-1.51c0.1-1.66,0.2-3.32,0.29-4.97c4.68-0.03,9.33,0.52,13.94,1.36
	c-0.06,1.56-0.1,3.12-0.13,4.69c-1.83,0.72-4.26,0.77-5.27,2.76c-3.09,4.55-6.26,9.06-9.39,13.58c-1.87,2.47-1.55,5.77-2.32,8.64
	c1.42,0.44,2.85,0.89,4.28,1.33c-0.17,1.73-0.31,3.47-0.46,5.22c-4.74-0.1-9.38-1.12-14.08-1.53c0.07-1.88,0.14-3.76,0.21-5.63
	c1.56-0.07,3.12-0.12,4.68-0.17c0.15-3.08,1.04-6.37-0.36-9.28c-2.22-5.56-4.08-11.24-6.24-16.81c-1.03-0.44-2.05-0.88-3.06-1.34
	C262.19,468.99,262.26,467.34,262.23,465.72 M233.56,455.6c8.84,2.7,17.61,5.65,26.36,8.61c-0.91,3.75-2.15,7.42-3.66,10.98
	c-1.6-0.55-3.19-1.09-4.8-1.6c0.57-1.85,1.07-3.7,1.41-5.59c-1.67-0.52-3.36-0.99-5.07-1.37c-2.65,8.11-5.56,16.14-7.88,24.35
	c1.3,0.73,2.61,1.45,3.91,2.2c-0.6,1.66-1.2,3.32-1.76,5c-4.66-1.39-9.28-2.91-13.87-4.51c0.25-1.66,0.52-3.31,0.83-4.95
	c1.71,0.04,3.41,0.16,5.12,0.28c2.31-8.3,5.82-16.26,7.68-24.68c-1.62-0.48-3.22-0.98-4.83-1.46c-0.61,1.68-1.22,3.36-1.97,4.99
	c-1.71,0.29-3.27-0.77-4.89-1.12C231.01,462.95,232.19,459.23,233.56,455.6 M371.08,454.15c4.09-1.62,8.23-3.13,12.41-4.5
	c0.57,1.76,1.08,3.55,1.46,5.36c-0.91,0.45-1.81,0.9-2.71,1.36c0.56,11.07,2.67,22.04,2.54,33.16c-1.6,0.67-3.26,1.16-4.89,1.71
	c-4.25-5.23-7.61-11.16-12.25-16.06c-0.6,6.86,1.17,13.61,0.86,20.47c-1.7,0.54-3.36,1.26-5.12,1.56c-1.19-0.86-1.91-2.2-2.79-3.34
	c-5.22-7.72-10.81-15.2-15.94-22.99c-1.31,0.06-2.62,0.13-3.93,0.21c-0.54-1.68-1.11-3.34-1.6-5.02c4.1-1.5,8.05-3.64,12.4-4.34
	c0.93,1.53,1.54,3.22,2.26,4.86c-1.25,0.59-2.51,1.19-3.76,1.79c3.29,5.86,7.53,11.12,11.05,16.83c0.7,1.1,1.4,2.19,2.12,3.29
	c0.3-7.9-0.78-15.77-1.64-23.6c-2.02-0.29-4.04-0.56-6.06-0.8c-0.07-1.38-0.16-2.74-0.24-4.1c4.24-1.5,8.35-3.48,12.8-4.29
	c0.37,1.64,0.8,3.27,1.3,4.89c-1.12,0.75-2.22,1.5-3.31,2.28c4.09,5.87,7.83,12.03,12.52,17.44c0.36-7.2-1.21-14.29-2.09-21.39
	c-1.49-0.02-3.1,0.55-4.5-0.13C371.5,457.28,371.3,455.71,371.08,454.15 M197.25,441.38c0.76-1.58,1.71-3.05,2.59-4.56
	c2.93,1.78,5.91,3.46,8.82,5.28c-0.19,9.59-0.41,19.19-0.08,28.78c3.38-5.27,6.48-10.73,9.44-16.26c-0.99-0.91-1.99-1.81-2.97-2.71
	c0.8-1.48,1.65-2.94,2.51-4.38c3.89,1.7,7.67,3.75,11.12,6.22c0.38,1.52-0.41,3.05-0.66,4.55c-1.7-0.09-3.39-0.26-5.07-0.46
	c-5.22,8.85-10.21,17.84-15.5,26.65c-2.01-0.56-5.3-1.16-4.89-3.9c-0.12-9.47,0.38-18.94-0.06-28.41
	c-3.69,5.53-6.43,11.6-10.07,17.15c1.18,0.95,2.36,1.89,3.54,2.86c-1.02,1.39-2.02,2.8-2.95,4.26c-4.2-1.77-8.05-4.21-11.96-6.52
	c0.63-1.44,1.29-2.86,1.92-4.3c1.59,0.15,3.17,0.33,4.76,0.53c3.93-7.31,8.6-14.2,12.24-21.66
	C199.05,443.48,197.92,442.6,197.25,441.38 M386.24,446.93c6.35-4.76,13.12-9.02,19.85-13.22c0.32,0.07,0.97,0.19,1.29,0.26
	c2.07,2.73,3.8,5.7,5.48,8.69c-1.38,0.88-2.75,1.76-4.11,2.66c-1.27-1.33-2.5-2.68-3.72-4.04c-2.54,1.72-5.11,3.41-7.61,5.19
	c1.9,2.58,3.09,5.88,5.67,7.86c3.33-1.43,6.11-3.86,9.17-5.76c1.21,1.56,2.31,3.19,3.4,4.85c-3.21,2.12-6.52,4.13-9.45,6.63
	c1.87,2.73,3.68,5.49,5.65,8.15c2.68-1.75,5.4-3.45,7.94-5.39c-0.95-1.61-1.87-3.23-2.71-4.89c1.54-0.94,3.1-1.86,4.68-2.74
	c1.91,3.22,4.06,6.29,6.07,9.45c-6.58,4.54-13.27,8.93-20.02,13.21c-2.14,1.32-2.99-2.12-4.21-3.25c0.78-1.44,3-2.84,1.89-4.66
	c-4-6.56-8.48-12.82-12.58-19.32c-1.61,0.22-3.22,0.46-4.83,0.68C387.4,449.87,386.41,448.53,386.24,446.93 M173.39,420.58
	c1.19-1.38,2.85-3.94,4.9-2.48c6.09,5,11.69,10.58,17.91,15.42c-2.49,2.58-4.5,5.65-7.34,7.88c-1.81-0.19-4.04-1.65-3.64-3.71
	c0.72-1.22,1.72-2.25,2.61-3.33c-2.45-1.94-4.4-5.18-7.64-5.69c-2.4,1.93-4.1,4.57-6.08,6.91c2.79,2.59,5.81,4.93,8.49,7.66
	c-1.46,1.2-2.3,3.61-4.36,3.82c-2.89-2.13-5.34-4.76-8.09-7.04c-2.26,2.54-4.61,5-6.89,7.52c2.24,1.98,4.34,4.16,6.86,5.81
	c1.7-0.01,2.66-1.92,4.11-2.64c1.93-0.09,4.55,2.25,3.2,4.22c-1.97,2.58-4.29,4.86-6.42,7.31c-6.3-5.6-12.87-10.95-18.9-16.83
	c0.84-1.71,2.25-3.03,3.51-4.43c1.13,0.83,2.27,1.66,3.42,2.48c5.51-6.38,11.02-12.76,16.71-18.97
	C174.94,423.19,174.06,421.94,173.39,420.58 M435.53,405.96c1.92-0.6,2.98,1.67,4.38,2.58c-0.38,1.66-2.68,3.54-1.06,5.1
	c6.83,7.1,14.19,13.74,20.82,21.05c-0.43,2.23-2.81,4.21-5.14,3.43c-9.2-2.25-18.24-5.19-27.46-7.41
	c4.27,5.09,9.25,9.51,13.88,14.27c1.3-0.74,2.61-1.46,3.94-2.15c0.92,1.45,2.83,2.53,2.81,4.42c-2.43,2.97-5.24,5.62-8.13,8.14
	c-1.72,1.82-3.2-1.12-4.28-2.22c-0.18-1.56,0.93-2.88,1.44-4.27c-6.02-5.68-11.7-11.72-17.66-17.46c-1.32,0.68-2.62,1.39-3.95,2.04
	c-0.9-1.44-3.13-2.53-2.71-4.46c1.94-2.14,4-4.18,6.16-6.1c3.01-0.41,5.83,1.26,8.73,1.85c6.2,1.46,12.16,3.99,18.53,4.61
	c-3.32-4.82-8.01-8.44-11.92-12.75c-1.28,0.76-2.53,1.55-3.78,2.35c-1.23-1.29-2.5-2.55-3.78-3.78
	C429.36,412.07,432.34,408.91,435.53,405.96 M438.39,401.68c5.28-7.59,10.1-15.5,15.37-23.1c2.94,1.84,5.95,3.59,8.75,5.64
	c0.97,1.98-1.16,3.6-2.14,5.09c-1.61-1-3.23-1.97-4.92-2.79c-0.89,1.44-1.74,2.9-2.52,4.4c6.96,5.01,14.39,9.32,21.32,14.36
	c0.95-1.16,1.89-2.33,2.83-3.49c1.58,0.88,3.16,1.78,4.75,2.66c-2.37,4.53-5.24,8.77-8.37,12.81c-1.43-0.94-2.86-1.86-4.3-2.75
	c0.53-1.5,1.14-2.97,1.69-4.47c-7.32-4.64-14.39-9.67-21.83-14.13c-0.76,1.6-1.51,3.19-2.18,4.83c1.3,1,2.67,1.95,3.88,3.07
	c-0.47,1.69-1.69,3.01-2.59,4.47C444.83,406.16,441.51,404.06,438.39,401.68 M142.31,379.29c1.29-0.8,2.57-1.62,3.85-2.45
	c2.74,3.61,5.58,7.18,7.79,11.16c-1.33,0.94-2.66,1.86-3.99,2.8c-1.24-0.81-2.49-1.62-3.77-2.36c-4.52,5.82-9.73,11.1-14.07,17.06
	c7.03-2.02,13.82-4.82,20.67-7.37c-0.2-1.77-0.45-3.54-0.63-5.3c1.36-0.75,2.72-1.48,4.09-2.19c2.56,3.73,5.43,7.25,7.68,11.18
	c-1.33,0.96-2.68,1.91-4.03,2.87c-1.22-0.78-2.37-1.75-3.78-2.15c-4.76,5.55-9.55,11.09-13.92,16.95
	c6.95-2.42,13.71-5.35,20.55-8.09c-0.24-1.6-0.47-3.2-0.64-4.81c1.36-0.69,2.73-1.37,4.13-2c2.55,3.58,5.15,7.13,7.47,10.86
	c-1.26,0.88-2.46,1.85-3.77,2.65c-1.81-0.66-3.62-1.98-5.61-1.14c-8.91,3.18-17.65,6.88-26.56,10.06c-2.65,1.09-4.37-2.18-4.57-4.36
	c3.61-5.65,8.57-10.32,12.19-15.97c-6.7,1.88-13.16,4.5-19.8,6.6c-1.11-1.6-2.2-3.2-3.28-4.81c5.33-6.25,10.46-12.65,15.71-18.95
	c1.61-1.97,3.54-3.76,4.63-6.08C142.63,382.06,142.42,380.68,142.31,379.29 M125.11,352.88c3.41-1.48,6.86-2.86,10.29-4.28
	c3.58,8.64,7.69,17.12,10.5,26.05c-3.47,1.3-6.82,2.95-10.42,3.86c-0.73-1.43-1.45-2.86-2.18-4.28c1.76-0.95,3.56-1.83,5.37-2.69
	c-0.69-1.63-1.4-3.25-2.14-4.86c-7.93,2.84-15.53,6.5-23.39,9.49c0.14,1.7,0.31,3.4,0.46,5.1c-1.7,0.47-3.42,0.85-5.16,1.17
	c-1.89-4.42-3.88-8.81-5.37-13.38c1.67-0.74,3.36-1.44,5.04-2.15c0.61,1.25,1.23,2.5,1.83,3.77c8.21-2.63,16.01-6.39,23.99-9.63
	c-0.45-1.7-1-3.37-1.56-5.03c-1.99,0.67-4.03,1.18-6.12,1.4C125.8,355.92,125.43,354.41,125.11,352.88 M467.39,346.53
	c1.7,0.51,3.38,1.12,5.07,1.72c-1.56,4.36,2.44,6.95,4.76,9.96c2.18,2.54,4.26,5.15,6.4,7.72c2.06,2.65,5.52,3.38,8.49,4.55
	c0.61-1.22,1.23-2.45,1.85-3.67c1.64,0.57,3.27,1.14,4.93,1.68c-0.91,4.69-3.09,9.03-5.03,13.37c-1.94,0.45-4.12-0.71-5.23-2.3
	c0.28-0.83,0.83-2.5,1.11-3.34c-8.38-5.11-18.23-0.6-27.3-1.11c-0.77,1.07-1.51,2.16-2.25,3.26c-1.66-0.62-3.3-1.26-4.96-1.86
	c1.54-4.39,3.36-8.67,5.21-12.94c1.74,0.32,3.47,0.71,5.17,1.2c-0.14,1.45-0.3,2.9-0.46,4.35c4.31-0.06,8.6-0.54,12.85-1.29
	c-3-3.31-5.69-6.9-8.79-10.11c-0.59,1.25-1.18,2.51-1.77,3.77c-1.78-0.74-3.51-1.59-5.2-2.5
	C463.97,354.84,465.71,350.7,467.39,346.53 M306.41,294.56c7.81-0.62,15.68-0.3,23.51-0.22c0.33,0.29,0.98,0.89,1.31,1.19
	c0.07,5.12,0.56,10.36-0.79,15.37c-0.57,1.94,1.12,3.5,1.84,5.16c1.1,1.5,1.6,3.88,3.63,4.36c1.8-2.76,4.05-5.56,4.76-8.78
	c-1.33-4.95-1.05-10.08-0.98-15.16c-0.38-1.83,1.96-2.25,3.27-2.24c7.2,0.02,14.4-0.11,21.6,0.12c0.11,5.21,0.01,10.44,0.09,15.66
	c-1.62,0.34-3.22,0.71-4.82,1.06c-4.5,8.14-9.38,16.06-14.01,24.12c-1.03,1.55-0.4,3.45,0.53,4.88c4.67,7.95,9.31,15.91,13.92,23.9
	c1.42,0.03,2.85,0.07,4.28,0.1c0.09,5.27,0.11,10.55-0.02,15.82c-7.87-0.05-15.74,0.08-23.61-0.04c-2.03-1.51-1.02-4.22-1.28-6.35
	c-0.26-3.71,0.36-7.34,1.09-10.95c-0.88-2.8-2.63-5.28-4.23-7.72c-2.94-1.1-3.66,3.37-5.13,5.1c-2.17,2.56-0.18,5.66-0.1,8.52
	c0.06,3.84,0.41,7.78-0.72,11.51c-8.03-0.16-16.06-0.02-24.08-0.08c-0.13-5.26-0.11-10.53-0.02-15.79c1.38-0.05,2.77-0.08,4.16-0.12
	c4.88-8.41,9.84-16.77,14.67-25.2c1.25-1.88-0.33-3.83-1.21-5.46c-4.3-7.01-8.28-14.21-12.54-21.23c-1.03-1.83-3.44-1.56-5.18-2.16
	C306.44,304.8,306.35,299.68,306.41,294.56 M233.74,295.51c0.82-1.06,1.89-1.49,3.24-1.28c7.16,0,14.32,0.01,21.48,0.02
	c-0.38,5.75,1.42,12.07-1.19,17.4c1.86,3.18,3.45,6.56,5.82,9.41c1.59-2.87,3.86-5.5,4.67-8.71c-0.61-5.98-0.42-12.01-0.35-18.01
	c7.83-0.13,15.67-0.22,23.49,0.01c0.34,0.29,1.01,0.87,1.35,1.16c0.21,4.77-0.04,9.55,0.12,14.32c-1.68,0.39-3.36,0.8-5.03,1.19
	c-4.69,8.43-9.74,16.66-14.56,25.01c-0.94,1.31,0.37,2.62,0.9,3.79c4.69,7.99,9.31,16.02,14.02,24c1.62,0.24,3.56-0.05,4.57,1.57
	c0.09,4.35,0.16,8.72-0.04,13.07c-0.29,0.35-0.86,1.04-1.14,1.39c-7.88,0.14-15.77,0-23.65,0.05c0.37-5.74-1.32-11.95,1.19-17.31
	c-1.95-3.09-3.77-6.25-5.64-9.38c-1.99,3.08-3.81,6.27-5.75,9.38c2.56,5.35,0.87,11.56,1.25,17.3c-7.86-0.02-15.72,0.08-23.58-0.03
	c-0.29-0.34-0.86-1.03-1.15-1.38c-0.18-4.36-0.12-8.74-0.04-13.1c1.03-1.52,2.92-1.34,4.52-1.64c5.14-8.8,10.17-17.67,15.46-26.39
	c-4.83-8.9-10.3-17.43-15.19-26.3c-1.63-0.4-3.25-0.81-4.88-1.21C233.78,305.06,233.54,300.28,233.74,295.51 M305.6,210.17
	c5.95-0.18,11.91-0.06,17.87-0.09c3,6.35,6.06,12.68,8.93,19.1c0.84,1.95,1.94,3.79,3.22,5.49c3.86-8.14,7.81-16.24,11.37-24.52
	c5.9-0.15,11.81-0.03,17.72-0.07c0.02,4.6-0.01,9.21,0.01,13.81c-1.15,0.07-2.29,0.14-3.43,0.21c0.01,15.27,0.05,30.55-0.02,45.82
	c1.37,0.4,2.73,0.82,4.1,1.24c-0.1,4.33-0.03,8.67-0.08,13c-7.29,0.13-14.59,0.06-21.88,0.04c0.02-4.36,0.04-8.72-0.02-13.08
	c1.83-0.57,4.27-1.11,3.87-3.6c-0.23-7.72,0.73-15.56-0.8-23.19c-3.62,7.75-7.12,15.57-10.88,23.26
	c-4.88-7.01-6.71-15.76-11.82-22.62c-0.47,8.26-0.04,16.54-0.25,24.81c1.3,0.46,2.6,0.94,3.9,1.42c-0.1,4.32-0.02,8.65-0.08,12.98
	c-7.05,0.02-14.11,0.18-21.15-0.05l-0.66-0.56c-0.09-4.16,0.08-8.33-0.06-12.49c1.4-0.38,2.8-0.76,4.2-1.12
	c-0.05-15.29-0.06-30.59,0-45.88c-1.34-0.06-2.68-0.13-4.02-0.2C305.59,219.31,305.64,214.74,305.6,210.17 M233.52,210.1
	c5.91-0.04,11.81-0.03,17.72,0.01c3.76,7.99,7.43,16.04,11.19,24.03c0.29,0,0.86,0,1.15,0c3.92-7.85,7.22-16.02,11.32-23.79
	c5.84-0.67,11.79-0.06,17.68-0.28c0,4.59,0.01,9.18-0.03,13.78c-1.31,0.12-2.62,0.26-3.93,0.4c0.1,15.16,0.07,30.33,0.02,45.5
	c1.32,0.4,2.65,0.82,3.99,1.24c-0.08,4.4-0.05,8.81-0.03,13.22c-7.08,0.03-14.17,0.02-21.25,0.01c0-4.43,0.03-8.86-0.03-13.29
	c1.13-0.32,2.25-0.63,3.39-0.93c0.96-5.45,0.4-11,0.56-16.5c0.15-3.18-0.25-6.33-0.9-9.43c-3.66,7.6-7.22,15.25-10.68,22.94
	c-0.33,0.01-0.99,0.02-1.33,0.02c-3.52-7.73-6.92-15.54-10.78-23.11c-0.61,8.66-0.09,17.36-0.3,26.04c1.16,0.29,2.32,0.59,3.48,0.9
	c0.73,4.41,0.73,8.95-0.02,13.36c-7.09,0.03-14.18-0.04-21.26,0.05c-0.13-4.41-0.01-8.83-0.13-13.24c1.37-0.44,2.74-0.86,4.13-1.27
	c-0.07-15.19-0.08-30.39,0-45.59c-1.32-0.09-2.63-0.18-3.94-0.27C233.51,219.3,233.53,214.7,233.52,210.1 M455.56,150.54
	c2.09-1.71,4.19-3.4,6.4-4.95c7.11,9.26,14.95,17.98,21.59,27.57c-4.24,3.28-8.42,6.62-12.59,9.98c-1.61-1.95-3.22-3.88-4.89-5.77
	c1.86-1.77,3.95-3.28,5.81-5.06c-1.48-4.14-5.24-7-7.76-10.52c-3.99,3.19-7.96,6.4-11.9,9.64c3.13,3.96,6.47,7.76,9.29,11.96
	c-2.1,1.72-4.23,3.43-6.48,4.97c-3.21-3.91-6.24-7.97-9.68-11.68c-2.87,2.56-6.09,4.7-8.9,7.32c-0.89,2.36,2.62,3.68,2.15,6
	c-1.74,1.71-3.79,3.03-5.75,4.44c-4.26-5.16-8.49-10.36-12.48-15.73c2-1.64,3.96-3.31,5.9-5.02c1.35,1.36,2.67,2.76,3.97,4.18
	c9.8-7.19,19.02-15.13,28.62-22.58C457.82,153.67,456.7,152.09,455.56,150.54 M289.4,153.1c-36.44,3.06-71.6,20.55-95.43,48.38
	c-24.01,26.82-36.51,63.17-35.38,99.02c1.05,15.64,3.84,31.29,9.68,45.9c7.74,20.35,20.57,38.55,36.39,53.43
	c18.47,16.92,41.41,29.03,65.92,34.31c13.53,3.3,27.56,3.46,41.41,2.88c37.92-2.72,74.37-21.63,98.49-51.02
	c21.55-25.62,33.36-59.07,33.01-92.5c-0.41-30.74-10.93-61.32-29.94-85.54c-19.03-24.83-46.6-42.88-76.85-50.73
	C321.3,153.22,305.26,151.97,289.4,153.1 M280.41,144.89c11.1-1.67,22.41-1.13,33.6-0.87c27.54,2.44,54.39,12.47,76.66,28.9
	c30.83,22.53,52.75,57.11,59.32,94.79c5.83,30.13,1.74,62.04-10.96,89.96c-15.13,33.56-42.93,61.13-76.62,75.96
	c-14.66,6.61-30.43,10.49-46.37,12.34c-10.02,0.45-20.06,0.46-30.08-0.01c-15.32-1.8-30.49-5.44-44.66-11.63
	c-23.22-9.95-43.84-25.86-59.42-45.74c-23.51-29.65-35.17-68.44-31.82-106.12c2.96-37.37,20.52-73.39,48.25-98.64
	C220.78,162.78,249.94,149.14,280.41,144.89 M145.49,143.05c2.81-1.4,4.82,1.63,6.85,3.04c2.09,2.15,5.23,3.51,6.53,6.29
	c-1.24,2.17-3.03,3.95-4.72,5.75c-2.47-2.05-4.91-4.13-7.35-6.22c-4.77,2.95-9.18,7.65-9.25,13.59
	c-0.08,7.38,5.59,13.17,11.23,17.15c5.28,3.76,13.01,5.08,18.5,1.04c5.64-4.01,7.56-11.14,8.53-17.63c2.46,1.73,4.72,3.72,7.07,5.61
	c-0.09,8.13-5.1,15.55-11.48,20.25c-4.89,3.55-11.24,3.95-17,2.9c-8.42-2.3-15.57-8.04-20.77-14.92
	c-3.91-5.62-6.49-13.03-4.13-19.76C131.69,152.25,138.32,146.46,145.49,143.05 M165.18,122.65c4.79-3.18,9.49-6.49,14.19-9.8
	c2.01,1.93,3.61,4.25,4.67,6.84c-1.71,1.17-3.41,2.35-5.09,3.55c6.53,10.37,13.95,20.17,20.86,30.29c3.73-2.5,7.42-5.07,11.09-7.67
	c-1.44-2.34-3.04-4.58-4.66-6.8c1.86-1.69,3.93-3.12,6.02-4.52c3.47,4.31,6.86,8.77,9.51,13.63c-9.45,6.97-19.24,13.5-28.88,20.22
	c-1.62-2.17-3.18-4.38-4.69-6.62c1.53-1.11,3.06-2.21,4.61-3.29c-6.77-10.14-13.85-20.08-20.81-30.09c-1.7,0.9-3.37,1.83-5.03,2.78
	c-1.26-1.94-3.02-3.63-3.78-5.85C162.94,123.92,164.22,123.3,165.18,122.65 M413.32,120.75c-5.31,1.33-9.53,5.25-12.57,9.65
	c-2.57,3.87-4.83,8.29-4.51,13.07c-0.72,7.61,7.5,14.16,14.76,12.16c5.08-1.12,9.22-4.76,12.23-8.86c3.16-4.43,5.72-9.73,5.17-15.32
	C428.06,124.37,420.13,118.55,413.32,120.75 M412.4,112.13c11.53-2.66,24.42,6.69,24.39,18.76c0.93,9.71-3.99,18.99-10.74,25.64
	c-4.75,4.7-11.2,8.3-18.07,7.8c-9.03,0.54-17.48-6.47-19.72-15.04c-1.98-6.56-0.13-13.6,2.86-19.54
	C395.53,121.44,402.94,114.1,412.4,112.13 M234.82,97.65c-0.4,6.61-0.05,13.22,0.64,19.8c3.85-1.13,7.62-2.49,11.42-3.79
	C242.96,108.25,239.38,102.54,234.82,97.65 M219.56,91.38c5.51-1.94,11.03-3.83,16.59-5.6c9.51,12.4,18.59,25.13,28.05,37.57
	c1.8-0.19,3.59-0.44,5.38-0.67c0.76,2.42,1.57,4.83,2.32,7.25c-6.09,2.02-12.04,4.89-18.49,5.54c-0.86-2.34-1.68-4.69-2.34-7.09
	c1.67-0.55,3.33-1.13,5.01-1.7c-1.23-2.02-2.55-3.97-3.83-5.94c-5.72,1.51-11.24,3.63-16.86,5.44c0.01,2.42,0.07,4.84,0.19,7.26
	c1.68-0.49,3.34-1.02,4.99-1.56c1.15,2.49,1.99,5.11,2.92,7.68c-6,1.89-11.9,4.12-17.97,5.78c-0.96-2.43-1.84-4.9-2.43-7.45
	c1.52-0.65,3.07-1.27,4.61-1.9c-0.2-12.8,0.08-25.6-0.21-38.4c-1.89,0.42-3.77,0.91-5.64,1.42
	C221.05,96.48,220.3,93.93,219.56,91.38 M338.28,79.67c7.5-1.71,15.02,1.91,21.32,5.69c-1.09,4.19-2.11,8.41-2.53,12.73
	c-2.64-0.28-5.22-0.88-7.81-1.4c0.48-2.42,1.08-4.81,1.46-7.24c-3.76-1.34-7.83-2.45-11.81-1.42c-3.53,1.55-4.76,6.75-1.92,9.49
	c4.28,4.83,11.21,6.76,14.62,12.46c3.11,4.95,2.34,11.34,0.09,16.46c-1.7,4.29-6.02,7.41-10.64,7.63
	c-7.69,0.68-15.14-2.48-21.53-6.49c0.89-4.25,2.05-8.46,2.39-12.81c2.61,0.35,5.17,0.96,7.75,1.53c-0.48,2.22-1.03,4.43-1.47,6.67
	c3.65,1.84,7.68,3.47,11.86,2.94c3.7-0.5,6.11-4.71,5.24-8.21c-2.46-5.31-8.38-7.35-12.65-10.86
	C323.08,99.97,326.59,82.05,338.28,79.67 M283.21,77.64c6.24-3.64,13.88-2.85,20.54-0.9c1.39,0.16,2.6,1.31,2.52,2.78
	c0.19,3.73,0.18,7.48,0.2,11.22c-2.55,0.04-5.12,0.3-7.66-0.07c-0.17-2.26-0.18-4.54-0.21-6.81c-4.25-0.88-9.65-1.21-12.81,2.33
	c-2.77,3.17-0.54,7.98,2.91,9.55c5.67,2.92,12.92,3.58,17.04,8.97c3.45,4.13,3.17,9.82,2.75,14.87c-0.88,5.97-6.58,10.37-12.46,10.6
	c-6.19,0.28-12.58,0.33-18.42-2.05c-0.04-4.38-0.15-8.76-0.26-13.13c2.38-0.07,4.75-0.17,7.13-0.25c0.07,2.43,0.2,4.88,0.89,7.23
	c4.47,0.02,9.7,1.42,13.54-1.56c2.38-1.63,1.91-4.92,1.48-7.38c-3.13-5.63-10.44-5.55-15.54-8.44
	C274.58,100.08,273.53,83.33,283.21,77.64 M279.46,60.16C251.33,63,223.54,70.3,198.13,82.83c-55.75,26.72-99.84,76.5-120.01,134.91
	c-7,19.88-11.01,40.76-12.55,61.76c-0.26,13.34-0.75,26.76,0.89,40.03c5.32,53.22,29.78,104.14,67.54,141.96
	c30.35,30.44,69.08,52.54,110.88,62.7c57.41,14.27,120.09,5.78,171.62-23.31c35.11-19.74,64.96-48.66,85.96-83.02
	c19.85-32.32,31.62-69.53,34.03-107.37c0.32-9.99,0.33-19.99,0-29.98c-2.74-45.14-18.9-89.36-45.92-125.64
	c-27.69-37.51-66.76-66.54-110.74-82.09C347.8,61.48,313.3,56.92,279.46,60.16 M275.5,51.37c33.14-3.17,66.99-0.26,98.75,9.95
	c48.75,15.14,92.36,46.16,122.89,87.05c24.76,33.01,41.07,72.35,46.57,113.27c2.47,16.49,2.25,33.22,1.77,49.84
	c-2.21,34.8-12.02,69.14-28.69,99.78c-18.67,34.63-45.79,64.63-78.32,86.75c-31.34,21.34-67.79,35.13-105.4,39.88
	c-18.24,2.5-36.79,2.48-55.14,1.09c-36.36-3.43-71.96-15.08-103.2-34.04c-34.11-20.54-63.09-49.48-83.57-83.63
	c-17.27-28.52-28.55-60.65-32.89-93.7c-2.29-15.17-2.13-30.56-1.8-45.86c2.4-51.79,22.34-102.46,55.42-142.33
	c34.26-41.93,82.85-71.99,135.82-83.41C256.86,53.87,266.18,52.51,275.5,51.37 M288.41,43.95c-51.79,2.37-102.59,21.59-143.21,53.79
	C93.45,138.34,58.56,200,51.35,265.46c-3.73,29.58-1.69,59.79,5.22,88.76c11.85,49.89,39.75,95.71,78.25,129.53
	c30.19,26.72,66.95,46.01,106.14,55.51c18.94,4.93,38.52,6.84,58.04,7.47c10.69,0.12,21.33-1.02,31.97-1.88
	c32.36-3.98,64.02-14.1,92.49-30.05c32.63-18.18,61.06-43.78,82.7-74.2c22.68-31.78,37.7-68.93,43.53-107.53
	c3.81-25.2,3.81-50.95-0.02-76.15c-6.34-42.15-23.82-82.49-50.02-116.1c-34.98-45.21-85.83-77.88-141.56-90.68
	C335.3,44.71,311.79,42.94,288.41,43.95 M227.38,12.15c14.15-2.55,28,3.12,41.11,7.75c9.93,3.25,19.9,7.39,30.51,7.42
	c23.88,1.03,44.34-15.08,67.97-15.85c8.88-0.34,17.52,3.19,24.38,8.68c9.41,7.58,16.81,17.23,24.7,26.3
	c6.26,6.77,12.63,13.82,21,18.02c19.81,9.85,43.44,7.43,62.98,18.02c9.21,4.83,15.1,14.16,18.01,23.9
	c6.07,18.06,5.5,38.14,14.94,55.07c10.03,16.07,27.15,25.57,39.65,39.43c7.55,7.87,12.96,18.51,12.03,29.67
	c-1.42,22.55-15.75,42.23-16.01,64.99c0.71,21.36,13.14,39.99,15.79,60.97c1.18,8.89-0.9,18.09-5.98,25.49
	c-9.52,14.02-24.33,22.97-35.99,34.96c-5.23,5.03-9.67,10.98-12.42,17.73c-6.48,15.94-6.68,33.51-12.2,49.73
	c-2.64,8.33-7.37,16.28-14.67,21.32c-10.38,7.09-23.11,9.06-35.19,11.39c-12.05,2.31-24.7,4.25-35.17,11.09
	c-14.02,9.55-23.03,24.37-34.95,36.14c-7.78,7.45-17.53,14.55-28.84,14.02c-12.58,0.8-24.36-4.25-36.01-8.21
	c-10.06-3.4-20.26-7.36-31.03-7.31c-16.98-0.39-32.35,7.96-48.32,12.49c-11.49,3.7-24.77,5.48-35.76-0.68
	c-16.15-8.73-25.41-25.35-38.35-37.74c-6.21-6.69-14.03-11.95-22.81-14.58c-10.56-3.81-21.84-4.67-32.72-7.19
	c-12.56-2.53-26.21-6.89-33.72-18.07c-8.75-13.17-9.9-29.44-13.16-44.48c-2.1-10.38-5.06-21.01-11.85-29.37
	c-11.83-14.56-28.71-24.04-40.11-39c-5.55-7.29-8.64-16.53-7.72-25.73c1.68-18.51,11.45-34.97,14.9-53.08
	c0.9-5.15,1.47-10.42,0.73-15.63c-2.31-20.48-14.32-38.6-15.69-59.25c-0.91-11.14,4.48-21.77,12.01-29.64
	c11.32-12.44,26.01-21.39,36.45-34.67c7.01-8.97,9.64-20.32,11.83-31.24c2.95-14.53,4.4-30.19,13.16-42.66
	c4.6-6.7,11.95-10.88,19.44-13.6c13.54-4.71,27.97-5.77,41.78-9.44c7.19-2.02,14.35-4.77,20.25-9.48
	c14.08-11.26,23.51-27.11,37.23-38.75C214.74,16.85,220.73,13.36,227.38,12.15"/>
<path id="S2" fill="#E20E0E" d="M355.49,464.1c2.02,0.24,4.04,0.51,6.06,0.8c0.86,7.83,1.94,15.7,1.64,23.6
	c-0.72-1.1-1.42-2.19-2.12-3.29c1.61-6.31-0.01-12.79-0.28-19.16C358.89,465.76,356.9,465.54,355.49,464.1 M250.32,423.38
	c1.83-0.58,3.68-1.19,5.63-1.19c27.35,0.04,54.7,0.03,82.05,0.02c4.33,0.06,8.71-0.35,12.99,0.47c1.22,3.55-4.59,3.46-6.94,4
	c-26,0.4-52.03-0.01-78.05,0.19C260.6,426.99,254.99,426.31,250.32,423.38 M228.67,412.02c2.75-0.49,5.53-0.85,8.33-0.84
	c43,0.06,86.01,0.02,129.02,0.02c2.46,0.03,4.89,0.4,7.32,0.82c-2.93,3.68-8,3.91-12.33,3.9c-40.68-0.1-81.37-0.03-122.05-0.04
	C235.22,415.85,231.16,415.06,228.67,412.02 M217.48,403.15c-1.27-2.18,2.08-2.33,3.49-2.38c50.01-0.02,100.02,0,150.04-0.01
	c4.79,0.01,9.67-0.41,14.38,0.79c-1.11,2.09-2.77,3.88-5.36,3.45c-52.02,0.07-104.05-0.04-156.08,0.06
	C221.75,404.92,218.92,405.22,217.48,403.15 M483.76,251.29c2.78-6.92,4.42-14.29,7.91-20.92c2.3,6.81,3.88,13.83,5.76,20.76
	c7.36,0.31,14.74-0.28,22.09,0.31c-5.48,5.32-12.41,8.79-18.02,13.96c1.97,7.09,4.31,14.07,6.17,21.19
	c-6.33-3.78-11.57-9.08-17.83-12.98c-6.32,3.67-11.49,9.07-18.13,12.21c1.6-7.05,4.56-13.67,7.06-20.42
	c-5.63-4.9-11.91-8.97-17.75-13.61C468.6,251.55,476.2,252.1,483.76,251.29 M112.23,230.32c2.58,6.78,3.94,13.93,6.06,20.85
	c7.37,0.23,14.75-0.31,22.11,0.27c-5.37,5.41-12.83,8.34-17.85,14.08c1.24,7.11,4.59,13.7,5.32,20.92c-5.88-3.9-10.93-9-17.06-12.52
	c-6.85,2.86-11.79,9.07-18.61,12.15c1.88-7.07,4.89-13.77,7.19-20.7c-5.51-4.91-11.82-8.81-17.44-13.58
	c7.45-0.58,15.13,0.94,22.43-0.89C107.59,244.29,108.97,236.93,112.23,230.32 M218.55,187.07c2.47-0.14,4.95-0.28,7.43-0.3
	c51.03,0.02,102.07,0.01,153.1,0.01c2.08-0.15,6.3,0.43,4.7,3.47c-3.83,1.06-7.85,0.58-11.78,0.66c-45.33-0.05-90.67,0-136-0.02
	c-5.97-0.04-11.96,0.27-17.9-0.41C218.25,189.34,218.4,188.21,218.55,187.07 M230.73,179.49c0.89-2.78,3.49-3.87,6.24-3.6
	c42.37-0.05,84.74,0.03,127.1-0.04c1.71,0.05,3.45,0.07,5.13,0.49c0.9,0.89,1.41,2.09,2.08,3.17c-5.74,0.68-11.52,0.38-17.28,0.41
	c-38.67,0.02-77.34-0.03-116.01,0.03C235.56,179.93,233.14,179.76,230.73,179.49 M250.59,168.99c0.87-2.83,3.56-4.19,6.4-3.98
	c29.34-0.05,58.69-0.05,88.03,0c3.04-0.3,5.5,1.57,7.2,3.9C318.36,169.29,284.46,169.13,250.59,168.99"/>
</svg>
