<?xml version="1.0" encoding="utf-8"?>
<!-- Generator: Adobe Illustrator 22.0.0, SVG Export Plug-In . SVG Version: 6.00 Build 0)  -->
<svg version="1.1" id="Layer_1" xmlns="http://www.w3.org/2000/svg" xmlns:xlink="http://www.w3.org/1999/xlink" x="0px" y="0px"
	 viewBox="0 0 1241.7 609" style="enable-background:new 0 0 1241.7 609;" xml:space="preserve">
<style type="text/css">
	.st0{fill:#231F20;}
	.st1{fill:url(#_1_1_);}
	.st2{fill:#0090AA;}
	.st3{fill:#FD0000;}
	.st4{fill:#FDBC39;}
</style>
<title>37-01-01-01-01</title>
<g id="Body">
	<path class="st0" d="M651.2,82.2c4.6-3.2,8.2-8.4,14.1-9.1v-2.4c11.5-5.2,21.6-13.5,34.1-16.4c6.8-2.1,13.8-3.6,20.6-5.4
		c13.4-4.1,26.5-9.1,39.2-14.9c1.1-0.7,2.5-0.8,3.7-0.4c4.6,1.2,9.2,2.4,13.8,3.6c12.6,3.9,25.9,4.1,38.9,6.1
		c19.7,0.2,39.4,0.1,59,0.1c13.1-1.7,26.1-4.5,38.6-8.6l1.3-0.2c8.7,3.9,17.5,7.5,26.5,10.5c13.2,5.2,27.5,6.9,40.7,12.4
		c5.8,2.8,11.6,5.5,17.1,8.9c3.8,2.3,8.2,3.8,11.9,6.3V74c5.4,2.8,10.3,6.6,14.3,11.3c8.9,11.9,16.5,24.7,22.8,38.2
		c5.7,13.5,9.7,27.5,12.2,41.9c2.2,13.6,7.4,26.6,10,40.1c1.2,6.2,2.8,12.5,2.3,18.8l1.4,0.7c0.4,5,0,10,0.2,15.1
		c-28.7,4.2-57.2,9.5-85.9,13.6c-2.6-10.6,0-21.5-2.2-32.1c-0.2-2.7-0.1-5.5-0.1-8.2c-1.3,3.2-1.7,6.6-2.2,10
		c-3,17.7-5,35.6-7.7,53.4c-2.1,15.9-4,31.7-5.5,47.6c-1,4.6-0.1,9.3-1.1,13.8c-1,5,0.1,10.2-0.9,15.2c-0.5,2.4-0.7,4.9-0.6,7.4
		c0.2,23-0.1,46.1,0.1,69.1c1.7,7.6,0.1,15.5,1.7,23.1c0,9.4,1.7,18.7,3.1,28c1.7,15,5.8,29.7,7.4,44.8c1.3,8,0.3,16.2,0.6,24.3
		c0.7,9.2,4.8,17.7,6.2,26.8c-14.3,5.1-28.9,9-43.8,11.7c-17.5,3.7-35.3,6-53.2,6.9c-2,0.4-4.1,0.6-6.2,0.7c-24.1,0-48.1,0-72.2,0
		c-5.8-0.1-11.6,0.5-17.3-0.7c-28.3-1.7-56.4-6.2-83.9-13.5c-7.8-2.1-15.5-4.6-23.2-7.2c0.2-4.2,1.6-8.3,2.6-12.3
		c1-3.7,0.3-7.6,0.7-11.4c0.3-2.1,1.6-4,1.8-6.1c0.3-6.7,1.3-13.3,2-20c0.3-9.4,3.1-18.5,4.4-27.8c1.8-10.2,3.1-20.6,4.2-30.9
		c1.2-5.6-0.1-11.3,1.1-16.8c0.7-3.8,0.2-7.6,0.7-11.4c1.8-8.7-0.4-17.7,1.5-26.4c0.5-10.6,0-21.3,0.2-31.9
		c-0.2-5.8,0.5-11.7-0.6-17.5c-1.2-7,0.4-14.1-1-21c-0.9-4.7,0.1-9.5-0.9-14.2s-0.2-9.8-1.2-14.7c-1.2-14.8-3.3-29.6-4.8-44.4
		c-2.3-15.6-3.7-31.3-6.3-46.9c-0.5,7.3-0.1,14.6-0.3,21.9c-28.4-1.4-56.7-3.6-85.1-5.4c0-5.4-0.5-10.9,0.8-16.2
		c-0.1-16.5,5.3-32.2,7.7-48.4c0.9-6.4,1.7-12.8,2.8-19.2c3-12.3,6-24.8,11.9-36.2c1.9-5.7,5.5-10.6,8.1-16
		C641.6,94.8,645.8,88,651.2,82.2 M252.4,37.9c6-1.9,11.6-5.1,17.8-6.3c-2.6,2.4-5.1,5.2-5.7,8.8c-0.6,3.4,1,6.7,2.7,9.5
		c5.2,8.9,12.4,16.4,21.2,21.9c7.2,4.4,15.5,6.6,23.7,8.5c17.4,3.6,35.2,4.7,52.9,3.2c12.7-1.3,25.5-3.1,37.6-7.5
		c9.1-3.3,17.8-8.7,23.5-16.7c3.5-5,7.4-10.2,9-16.2c1.1-3.9-1.2-7.5-3.4-10.6c4.1,1.1,8.2,2.4,12.2,4.1c13.2,5.4,27.2,8.6,41.1,12
		c12.7,3.3,23.1,11.8,35.4,16.1v1.5c5.6,3.9,12.2,7.2,15.8,13.3c3.4,5.3,7.6,10.1,10,16c3.5,7.3,7.8,14.2,10,22
		c6,14.2,10,29.1,11.9,44.5c-0.1,3.9,1.4,7.6,1.3,11.5c-0.1,2.6,0.8,5.1,1.4,7.6c0.9,3.1,0.2,6.5,1.5,9.6c1.4,3.8,1,7.9,2.3,11.7
		c1.1,3.2,0.6,6.7,1.1,10c1.4,6,0.5,12.2,0.7,18.3c-27.7,1.7-55.4,3.9-83.1,5.4c-0.1-8.6,0.2-17.2-0.2-25.8
		c-2.4,6.2-1.3,12.9-3.1,19.1c-1.3,4.8-0.1,9.8-1.5,14.5c-0.9,3.2-1.3,6.5-1.3,9.8c0.2,6.1-2.2,11.9-2,18c0.2,6.4-2.5,12.6-2,19
		s-1.7,12.8-1.1,19.3c0.6,4.6-1.2,9.1-0.9,13.8c0.2,3.7-1,7.3-1,11V413c0.4,6,1.4,12,2,18c-0.2,4.9-0.4,9.8,0.5,14.6
		c1.2,5.5-0.1,11.2,1.2,16.7c0.8,4.1,1.3,8.3,1.6,12.5c1.7,6.4,1.9,13,3.4,19.5c0.2,4.7,2.4,9,2.4,13.8c0.2,6.2,2.1,12.3,1.8,18.5
		c1.8,8.6,1.9,17.5,3.6,26.1c1.2,5.1,2.1,10.2,3.6,15.2c-3.6,3.8-8.5,5.6-13.6,6.7c-5,2.1-10.4,1.1-15.6,2.3
		c-2.6,0.6-5.2,0.9-7.9,1.1c-7.1-0.1-14.1,1.2-21.1,2c-11.7,0.6-23.4-0.8-35,1.1c-49.4,0.1-98.8,0.1-148.3,0c-3.4,0-6.6-1.1-10-1
		c-10.7,0.3-21.3-2-32-2.1c-6.5-1.7-13.8-2.4-19.1-7c1.3-6.3,3.1-12.5,5.4-18.5c1.2-4,1.4-8.2,1.9-12.2c1.6-8.6,0-17.4,0.9-26.1
		c1.5-5.4,1.8-11.1,3.4-16.5c1.5-13.1,4.8-26,6-39.1c1.9-6.8,0.8-14,2.1-20.9c0.2-2.3,0.2-4.5,0.4-6.8c2-11-0.5-22.2,1.7-33.2
		c0.2-11,0.1-22,0.1-33.1c-1.9-11.3-0.6-22.7-1-34.1c-0.7-7-1.8-14-2-21c0.5-7.5-2.3-14.6-2-22.1c0.4-5.8-2.4-11.2-2-17
		c0.2-4.1-1.4-8-1.7-12c0.2-5.1-1.6-9.9-1.3-15c0.1-5.4-2.6-10.5-2.1-16c-1.5-8.1-2.2-16.4-4.9-24.2c-0.2,5.8,0.6,11.7-0.8,17.5
		c-1.1,7.5,0.9,15.4-1.1,22.7c-28.1-4.4-56.2-8.7-84.3-13c0.2-4.5-0.5-9.1,0.4-13.6c1.7-4.5,2.7-9.3,2.8-14.2
		c1.6-4.4,1.8-9.1,3.5-13.5c1.2-5.9,3.1-11.6,3.5-17.6c1-3.3,2-6.6,1.9-10.1c1.4-6.3,3-12.5,4.2-18.9c2.9-9.2,5.6-18.4,9.9-27.1
		c2.8-5.6,4.6-11.7,8.4-16.6c3.6-7.2,7.8-14,12.6-20.5c3.9-3.5,7.4-7.4,11.9-10.1c0.7-2.1,3.5-2.7,5.2-3.8
		c12.4-5.1,23.4-13.4,36.7-16.4c6.7-1.5,13.2-3.7,19.9-5.2C242.6,41.9,247.4,39.5,252.4,37.9z"/>
</g>
<linearGradient id="_1_1_" gradientUnits="userSpaceOnUse" x1="583.3" y1="222.4" x2="583.3" y2="596.3633">
	<stop  offset="0" style="stop-color:#FFFFFF;stop-opacity:0"/>
	<stop  offset="1" style="stop-color:#0090AA"/>
</linearGradient>
<path id="_1" class="st1" d="M201.8,222.4H159v14.9c14,2.1,28,4.3,41.9,6.5C202.8,236.8,201.1,229.5,201.8,222.4 M491,222.4H206.7
	c0.3,1.8,0.6,3.6,0.9,5.5c-0.5,5.5,2.2,10.6,2.1,16c-0.4,5.1,1.5,10,1.3,15c0.3,4.1,1.9,7.9,1.7,12c-0.3,5.8,2.4,11.2,2,17
	c-0.3,7.4,2.5,14.6,2,22.1c0.2,7,1.3,14,2,21c0.4,11.4-0.9,22.8,1,34.1c0,11,0.1,22-0.1,33.1c-2.2,11,0.3,22.2-1.7,33.2
	c-0.2,2.3-0.2,4.5-0.4,6.8c-1.4,6.9-0.2,14-2.1,20.9c-1.3,13.1-4.5,26-6,39.1c-1.6,5.4-1.9,11-3.4,16.5c-0.9,8.7,0.6,17.5-0.9,26.1
	c-0.6,4.1-0.7,8.3-1.9,12.2c-2.4,6-4.2,12.2-5.4,18.5c5.3,4.6,12.6,5.3,19.1,7c10.7,0.1,21.3,2.4,32,2.1c3.4,0,6.6,1,10,1
	c49.4-0.1,98.8-0.1,148.3,0c11.6-1.9,23.3-0.5,35-1.1c7-0.8,14-2.1,21.1-2c2.6-0.2,5.3-0.5,7.9-1.1c5.1-1.2,10.6-0.3,15.6-2.3
	c5-1.1,10-2.9,13.6-6.7c-1.4-5-2.3-10.1-3.6-15.2c-1.8-8.6-1.8-17.5-3.6-26.1c0.3-6.3-1.6-12.3-1.8-18.5c0.1-4.7-2.2-9.1-2.4-13.8
	c-1.5-6.5-1.6-13.1-3.4-19.5c-0.3-4.2-0.8-8.4-1.6-12.5c-1.4-5.5-0.1-11.2-1.2-16.7c-0.9-4.8-0.6-9.7-0.5-14.6c-0.5-6-1.5-12-2-18
	v-78.2c0-3.7,1.2-7.3,1-11c-0.4-4.7,1.4-9.2,0.9-13.8c-0.6-6.5,1.7-12.8,1.1-19.3s2.2-12.6,2-19c-0.2-6.1,2.2-11.9,2-18
	c0-3.3,0.4-6.6,1.3-9.8c1.3-4.8,0.1-9.8,1.5-14.5C490.5,227.2,490.8,224.8,491,222.4L491,222.4z M576.3,222.4h-83.2
	c0,4.6-0.1,9.2,0,13.9c27.7-1.5,55.4-3.7,83.1-5.4C576.1,228,576.2,225.2,576.3,222.4L576.3,222.4z M691.6,222.4H607
	c-1.1,5.1-0.7,10.4-0.7,15.6c28.4,1.8,56.7,3.9,85.1,5.4C691.5,236.3,691.2,229.3,691.6,222.4L691.6,222.4z M983.8,222.4h-292
	c2.5,15.2,3.9,30.6,6.2,45.9c1.5,14.8,3.6,29.6,4.8,44.4c1.1,4.8,0.2,9.8,1.2,14.7c0.9,4.7-0.1,9.5,0.9,14.2c1.4,6.9-0.2,14.1,1,21
	c1.1,5.8,0.4,11.6,0.6,17.5c-0.1,10.6,0.3,21.3-0.2,31.9c-1.9,8.7,0.2,17.7-1.5,26.4c-0.6,3.8,0,7.6-0.7,11.4
	c-1.2,5.5,0,11.3-1.1,16.8c-1.1,10.3-2.3,20.7-4.2,30.9c-1.3,9.3-4.2,18.4-4.4,27.8c-0.7,6.7-1.7,13.3-2,20c-0.2,2.1-1.5,4-1.8,6.1
	c-0.3,3.8,0.4,7.7-0.7,11.4c-1,4.1-2.4,8.1-2.6,12.3c7.6,2.7,15.3,5.2,23.2,7.2c27.5,7.2,55.6,11.7,83.9,13.3
	c5.7,1.2,11.5,0.6,17.3,0.7h72.2c2.1-0.1,4.2-0.3,6.2-0.7c17.9-0.9,35.7-3.2,53.2-6.9c14.9-2.7,29.5-6.6,43.8-11.7
	c-1.4-9.1-5.5-17.5-6.2-26.8c-0.3-8.1,0.7-16.3-0.6-24.3c-1.6-15.1-5.7-29.7-7.4-44.8c-1.5-9.3-3.1-18.6-3.1-28
	c-1.7-7.6,0-15.5-1.7-23.1c-0.2-23,0-46.1-0.1-69.1c-0.1-2.5,0.1-5,0.6-7.4c1-5-0.1-10.2,0.9-15.2c1-4.6,0.2-9.3,1.1-13.8
	c1.5-15.9,3.4-31.8,5.5-47.6c2.7-17.8,4.6-35.6,7.7-53.4L983.8,222.4z M1007.6,251v-28.6H986c2,10.4-0.5,21.2,2.1,31.6
	C994.6,253,1001.1,252,1007.6,251z"/>
<path id="Layer-02" class="st2" d="M503.3,158.5c12.3,27.9,15.5,58.8,15.6,89c-8.2,2-16.7,0.8-25.1,1c0-2.6,0-5.2,0.2-7.7
	c0.5-12.9,0.6-25.8,0.6-38.7c-0.7,2.3-1,4.7-0.9,7.1c-2.4,6.1-1.4,12.8-3.1,19.1c-1.3,5-0.2,10.3-1.6,15.3
	c-1.6,5.3-0.6,10.8-1.8,16.2c-0.8,3.5-1.3,7.1-1.3,10.7c0.2,6.1-2.2,11.9-2,18c-0.1,2.4,0.4,4.9-0.5,7.1c-0.8,0.7-1,1.8-0.7,2.8
	c0.1,0.4,0.2,1.2,0.3,1.6c-4,0.1-8,0.1-11.9,0.1c3.2-32.5,9.3-64.9,20.9-95.5c1.1-3.2,2.7-6.2,3.6-9.4c0.4-3.1-0.8-6.2-0.2-9.3
	c1.4-6.3,3.8-12.3,5.3-18.6C501.3,164.3,502.2,161.4,503.3,158.5 M183.3,210c2-15.9,5.3-31.9,11.5-46.7c3,10,6.4,19.8,10,29.6
	c0.9,5.6,1,11.5,3.1,16.9c10.5,29.1,16,59.7,19.1,90.4c-3.2,0-6.5,0-9.8,0.2h-0.9c-0.4-5.9-1.4-11.8-1.3-17.7
	c-1.3-5.5-2-11.2-2.1-16.9c-1.6-5.7-1.2-11.7-2.4-17.4c-0.6-4.2,0.1-8.6-1.3-12.8c-1.4-4.3-0.7-8.9-1.7-13.2
	c-1.4-6.7-1.8-13.7-4.1-20.2c-0.5,5.3,0.4,10.7-0.6,16c-1.6,8.4,0.7,17.1-1.5,25.5c-0.9,3.9-1.3,7.9-1.1,11.9c-6.3,0-12.8,0.6-19-1
	C180.7,239.6,181.5,224.8,183.3,210 M998.5,174c1.1,1.4,1.9,3.1,2.4,4.8c7.5,27.6,9.1,56.4,7.9,84.8c-5.8,1-11.7,1.3-17.6,1
	c-1.6-4.5-0.9-9.4-2.1-14c-2.3-9.3,0.1-18.9-1.7-28.2c-0.5-3.4-0.2-6.8-0.5-10.2c-1.2,2.3-1.3,5-1.7,7.5
	c-3.4,19.5-5.5,39.1-8.5,58.7c-1.1,7.2-1.6,14.5-2.7,21.8c-4,0.1-7.9,0-11.8,0c2.4-23.8,6.1-47.5,12.7-70.5
	c4.4-15.1,9.2-30.2,16.6-44.1c0.9,2.2,1.8,4.4,2.8,6.5C998.1,186.8,998,180.1,998.5,174 M671.3,256.7c-0.3-26.3,1.2-52.9,8.5-78.3
	c1.1,3.4,2.2,6.8,3.5,10.1c2.8-1.4,6.2-3.4,9.1-1c4.8,2.3,3.8,8.2,4.6,12.6c0.6,7.3,4.1,14,6,21c8.1,25.7,12.6,52.4,15.3,79.2
	c-5.3,0-10.5,0-15.8,0.1c0.1-6.3-1.3-12.5-1.9-18.7c-1.9-20.4-5.5-40.6-7.3-61h-0.9c0,12,0.1,24,0,36
	C685.4,256.7,678.4,256.5,671.3,256.7 M210.6,198.5c0.3-4.2,2.4-8.1,4.1-12c0.8,1.7,1.4,3.4,1.9,5.2c0,2.5-1.2,5.1-0.2,7.6
	c16,40.5,23,83.9,25.3,127.2c0.7,22.7,0.7,45.4-1.2,68c-0.1,2.7-1.5,5.1-3,7.3c-6.4,9.3-12.6,18.8-19,28.1c0.3-2.7,0.5-5.4,1-8
	c4.5-6.9,9.2-13.6,13.8-20.5c1.3-2,2.1-4.4,2.2-6.9c4.2-61.2,0.1-123.9-19.9-182.4C214.1,207.5,211.7,203.2,210.6,198.5 M478.4,191
	c0.6-1.5,1.2-3,2-4.4c1.4,3.9,3.5,7.7,3.9,11.9c-1.3,5-3.7,9.6-5.2,14.5c-19.9,58.6-23.9,121.5-19.5,182.8c0.2,4.2,3.2,7.3,5.4,10.7
	c5.9,8.8,11.9,17.5,17.7,26.4c0.1,5.3,0.5,10.7,1.2,15.9c-1-1.6-2.2-3.2-3.2-4.8c-2.9-4.1-1.2-9.8-4.2-13.9
	c-6.6-9.8-13.1-19.6-19.8-29.4c-1-1.3-1.7-2.9-2.1-4.5c-1.9-20.2-1.6-40.5-1.5-60.7c0.1-13,1.1-25.9,2.5-38.7
	c3.7-33,10.5-66,22.8-97C479.3,197,477.9,193.9,478.4,191 M702.1,199.9c-1-4.7,2.1-9.1,3.8-13.4c0.8,1.7,1.4,3.4,1.9,5.2
	c-0.1,2.8-1.3,5.6,0,8.3c7.2,18.4,12.7,37.4,16.5,56.7c9.2,44.9,10.7,91.2,7.5,136.8c0,4.1-2.5,7.4-4.7,10.6
	c-5.7,8.3-11.2,16.8-17,25.1c-3.2,4.2-2.4,9.9-4.3,14.7c-1.1-5.4,0.7-10.7,0.8-16.1c4.8-7.2,9.7-14.4,14.6-21.6
	c1.7-2.6,3.8-5.1,4.8-8.1c0.9-3.8,0.8-7.7,1-11.6c1.3-19,1.2-38,0.7-57C725.5,285.5,718.3,241.2,702.1,199.9"/>
<path id="collar-01" class="st3" d="M770.4,28.1c6.2-4.9,12.8-10.7,21.2-10.8c22.7,0.1,45.4-0.1,68.1,0.1c9.5,1.8,19.2,0.3,28.8,1.1
	c5.9,0.6,10.8,4.2,14.9,8.1c3,3,6.6,5.4,9.9,8.1c-12.6,4.1-25.5,7-38.6,8.6c-19.7,0-39.4,0.1-59-0.1c-13-2-26.3-2.2-38.9-6.1
	c-4.6-1.2-9.2-2.3-13.8-3.6C765.2,31.4,768,30,770.4,28.1 M281.3,32.8c-1,2.4-0.1,5,0.7,7.3c3.2,9,10.7,15.6,18.5,20.7
	c6,3.7,12.3,7.5,19.5,7.8c18,1.2,36,1.2,54-0.1c13.9-0.7,27-6.6,36.7-16.6c5.1-4.8,7.9-11.6,7.5-18.6c-43.7,1.2-87.5,1.8-131.2-0.8
	C285,32.5,283,32,281.3,32.8L281.3,32.8z M314.8,16.6c13.7-0.9,27.4-1.6,41.1-2.3c12.7,0.3,25.4,1.8,38.1,3.1
	c9.3,0.6,17.4,5.5,25.7,9.3c3.9,2.1,8.1,3.6,12,5.9c2.2,3,4.5,6.7,3.4,10.6c-1.6,6-5.4,11.2-9,16.2c-5.7,8-14.4,13.3-23.5,16.6
	c-12.1,4.4-24.9,6.3-37.6,7.6c-17.7,1.5-35.5,0.4-52.9-3.2c-8.2-1.8-16.5-4-23.7-8.5c-8.7-5.5-16-13-21.2-21.9
	c-1.7-2.9-3.3-6.1-2.7-9.5c0.6-3.6,3.1-6.5,5.7-8.8c9.6-4.7,19.4-8.9,29.5-12.5C304.5,17.3,309.7,17,314.8,16.6L314.8,16.6z"/>
<path id="Accents" class="st4" d="M989.6,252.1c28.7-4.1,57.2-9.4,85.9-13.6v12.4c-23.1,4.7-46.3,9.3-69.7,12.6
	c-4.7,1.1-9.5,0.4-14.3,0.6C989.5,260.3,991.1,255.9,989.6,252.1 M607.8,236.1c28.4,1.8,56.7,3.9,85.1,5.4V256
	c-9.3-0.4-18.8,0.9-28-1c-3.1-0.2-6.4,0.3-9.4-0.6s-6.2,0-9.2-0.8c-3.6-1.2-7.5-0.2-11.2-0.8c-4.7-1.5-9.7-0.2-14.3-1.7
	c-4.4,0.3-8.6-0.9-12.9-1.2L607.8,236.1L607.8,236.1z M494.7,234.4c27.7-1.5,55.4-3.7,83.1-5.4v13c-5.8-0.6-11.2,2.2-17,2
	c-3.7-0.2-7.2,1.2-10.9,1.1c-6.8,1.8-14,0.3-20.9,1.1c-4.4,1.5-9.1,0.1-13.5,1.6c-6.9,0.5-13.9,0-20.8,0.2L494.7,234.4L494.7,234.4z
	 M118.1,228.9c28.1,4.3,56.2,8.6,84.3,13c-1,4.3-1.4,8.6-1.4,13c-4.9-0.1-9.8,0.3-14.7-0.1c-6.7-1.9-13.7-1.7-20.5-3.6
	c-5.3,0-10.2-2.4-15.6-2.4c-6.9-2.1-14.1-2-21-4c-3.7-1.3-7.7-0.2-11.2-2L118.1,228.9L118.1,228.9z"/>
</svg>
