<?xml version="1.0" encoding="utf-8"?>
<!-- Generator: Adobe Illustrator 21.0.0, SVG Export Plug-In . SVG Version: 6.00 Build 0)  -->
<svg version="1.1" id="Layer_1" xmlns="http://www.w3.org/2000/svg" xmlns:xlink="http://www.w3.org/1999/xlink" x="0px" y="0px"
	 viewBox="0 0 600 600" enable-background="new 0 0 600 600" xml:space="preserve">
<path id="S1" fill="#050202" d="M283.38,497.33c7.34,0.45,14.7-1.31,21.99-0.16c0.01,4.43,0.01,8.87,0.17,13.31
	c-1.34,0.27-2.67,0.57-3.99,0.88c0.16,4.88,0.05,9.77,0.19,14.65c1.05,10.54,0.5,21.15,0.8,31.73c3.34-0.04,6.69-0.09,10.03-0.07
	c0.23-2.05,0.54-4.07,0.82-6.1c4.65-0.06,9.29-0.27,13.94-0.12c-0.15,6.61,0.09,13.23,0.09,19.84c-13.99,0.18-27.97,0.63-41.95,1.1
	c-0.95-4.62-0.77-9.34-0.84-14.02c0.99-0.11,2.96-0.32,3.95-0.43c-0.16-10.32-0.15-20.64-0.33-30.96
	c-0.67-5.19-0.65-10.43-0.62-15.65c-1.37-0.01-2.73-0.01-4.09-0.01C283.54,506.65,283.45,501.99,283.38,497.33 M215.02,494.3
	c1.49-4.37,2.55-8.9,4.4-13.14c6.8,2.26,13.65,4.39,20.48,6.54c-0.94,4.42-2.72,8.61-3.77,13c-1.42-0.13-2.83-0.26-4.24-0.38
	c-4.37,14.91-9.54,29.57-13.79,44.5c3.15,1.19,6.4,2.06,9.66,2.94c0.63-1.86,1.27-3.72,1.97-5.55c4.37,1.5,8.88,2.59,13.15,4.36
	c-1.82,6.35-4,12.59-5.87,18.93c-13.47-4.2-26.95-8.39-40.36-12.78c1.19-4.42,2.65-8.74,4.07-13.08c1.35,0.1,2.71,0.19,4.08,0.27
	c4.58-14.78,9.25-29.54,13.99-44.27C217.53,495.19,216.27,494.75,215.02,494.3 M349.52,491.91c13.55-5.38,27.3-10.23,40.89-15.5
	c2.66,6.12,4.75,12.47,7.25,18.65c-4.27,1.77-8.62,3.33-12.96,4.91c-0.81-1.89-1.64-3.76-2.5-5.62c-3.63,1.54-7.33,2.9-11.01,4.31
	c1.98,5.05,3.91,10.13,5.7,15.26c6.02-1.78,11.78-4.34,17.68-6.48c1.94,4.26,3.35,8.73,5.16,13.05c-5.83,2.43-11.88,4.3-17.65,6.87
	c1.84,5.1,3.79,10.17,5.68,15.26c3.71-1.3,7.4-2.65,11.02-4.19c-0.63-1.87-1.24-3.75-1.73-5.65c4.3-1.7,8.61-3.35,13.01-4.78
	c2.09,6.23,4.64,12.3,6.86,18.49c-13.56,5.45-27.28,10.57-41.05,15.48c-1.62-4.21-3.15-8.45-4.79-12.65
	c1.19-0.63,2.38-1.24,3.59-1.85c-5.5-14.48-10.9-29-16.39-43.48c-1.36,0.22-2.73,0.46-4.09,0.69
	C352.82,500.36,351.13,496.15,349.52,491.91 M165.68,463.88c-9.78,12.23-18.69,25.13-28.35,37.45c4.18,3.16,8.35,6.33,12.64,9.35
	c9.24-12.64,18.83-25.02,28.01-37.69C173.88,469.95,169.83,466.85,165.68,463.88 M157.9,450.55c4-0.05,7.93-1.2,11.94-1.05
	c6.31,4.53,12.49,9.26,18.71,13.92c2.68,1.61,2.51,5.07,3.38,7.74c0.43,2.41,1.63,5.36-0.38,7.38
	c-11.08,14.61-21.93,29.4-32.98,44.03c-1.56,2.66-5,1.63-7.55,2.03c-2.52-0.13-5.53,0.93-7.54-1.09
	c-6.02-4.76-12.43-9.02-18.3-13.95c-1.57-3.66-1.51-7.87-2.65-11.7C134.34,482.1,146.09,466.31,157.9,450.55 M418.99,457.93
	c5.89-5.29,12.07-10.28,18.21-15.28c3.94-0.39,7.92,0.04,11.88-0.03c2.73,3.08,5.34,6.27,8,9.41c-3.42,2.96-6.86,5.88-10.36,8.73
	c-1.69-1.18-2.93-2.86-4.37-4.3c-3.74,3.16-7.46,6.34-11.26,9.42c10.04,12,20.1,23.97,30.05,36.04c3.93-2.91,7.59-6.15,11.34-9.28
	c-3.23-4.42-6.9-8.5-10.42-12.69c-2.43,1.96-4.89,3.88-7.23,5.94c-3.03-3.57-6.18-7.07-8.87-10.9c5.96-4.92,11.8-10,17.86-14.78
	c7.92,9.3,15.67,18.73,23.52,28.09c-0.87,3.9-1.06,7.95-2.19,11.79c-6,5.42-12.26,10.62-18.62,15.62c-3.86,1.38-8.19-0.3-12.24-0.1
	c-12.6-15.15-25.24-30.28-37.9-45.39C417.19,466.15,416.89,461.58,418.99,457.93 M114.56,396.47c4.26-0.72,8.61,0.91,12.54,2.48
	c4.83,6.22,9.01,12.97,13.42,19.5c0.43,4.04-0.07,8.18-1,12.12c-2.82,2.96-6.66,4.73-9.86,7.24c-2.88-3.74-5.45-7.7-7.99-11.67
	c1.65-1.06,3.28-2.17,4.91-3.26c-2.74-4.02-5.23-8.22-8.28-12.02c-12.14,8-24.05,16.34-36.17,24.36c-0.94,0.67-2.3,1.26-1.93,2.68
	c2.14,3.97,5.02,7.51,7.53,11.26c1.69-1.08,3.36-2.18,5.05-3.24c2.54,3.89,5.31,7.63,7.7,11.63c-3.43,2.29-6.85,4.6-10.28,6.9
	c-3.65-1.48-7.53-2.17-11.27-3.34c-4.71-6.68-9.49-13.39-13.68-20.4c0.35-4.07,0.25-8.71,2.16-12.3
	C83.04,417.66,98.78,407.01,114.56,396.47 M482.63,381.01c5.82,3.15,11.46,6.62,17.04,10.19c-2.28,3.91-4.58,7.82-6.95,11.68
	c-1.85-0.88-3.67-1.82-5.51-2.7c-1.96,3.32-3.9,6.65-5.88,9.96c4.56,3.01,9.4,5.56,13.92,8.63c3.4-5.37,6.65-10.82,9.83-16.32
	c3.96,2.42,8.01,4.71,11.92,7.23c-2.93,5.56-6.4,10.82-9.54,16.27c4.77,2.81,9.48,5.73,14.27,8.51c1.86-3.49,4.01-6.8,5.89-10.28
	c-1.65-1.03-3.3-2.05-4.94-3.08c2.26-4.06,4.65-8.03,7.12-11.97c5.72,3.39,11.41,6.83,17.11,10.26
	c-7.46,12.57-14.96,25.11-22.57,37.6c-3.99-2.3-7.85-4.8-11.88-7.01c0.58-1.26,1.15-2.53,1.7-3.8
	c-13.47-7.72-26.61-16.02-40.04-23.81c-0.74,1.07-1.48,2.14-2.21,3.23c-3.96-2.42-7.99-4.71-11.85-7.27
	C467.58,405.88,474.84,393.27,482.63,381.01 M351.38,360.73c9.64-0.02,19.28,0.09,28.92-0.06c-0.02-37.69-0.01-75.38-0.01-113.07
	c-9.63-0.11-19.25-0.01-28.88-0.05C351.35,285.27,351.42,323,351.38,360.73 M345.71,242.43c13.2-0.07,26.39,0,39.59-0.05
	c0.08,41.34,0.05,82.67,0.02,124c-13.21,0.02-26.42,0.07-39.63-0.03C345.66,325.04,345.64,283.74,345.71,242.43 M332.62,206.61
	c-4.46,3.14-8.21,7.14-12.43,10.58c-3.44,3.34-7.82,5.83-10.56,9.81c-0.34,49.66,0,99.36-0.17,149.03c0.02,1.93-0.08,3.89,0.29,5.8
	c4.26,4.89,9.63,8.64,14.3,13.13c2.93,2.47,5.52,5.53,9.03,7.2c8.29,0.52,16.62,0.04,24.92,0.2c13.29-0.16,26.62,0.32,39.89-0.21
	c6.47-4.07,11.64-9.91,17.68-14.58c2.48-2.47,6.87-4.34,6.22-8.52c-0.05-50.02,0-100.05-0.02-150.07c-0.04-1.3-0.05-2.74-1.23-3.55
	c-5.85-5.5-12.2-10.44-18.1-15.88c-2.11-1.8-4.34-4.1-7.35-3.87c-19.06-0.03-38.11,0.05-57.17-0.03
	C336.13,205.73,334.15,205.47,332.62,206.61 M330.52,201.51c1.6-1.06,3.58-0.78,5.4-0.84c20.74,0.07,41.48-0.03,62.21,0.05
	c2.91,0.05,4.91,2.43,6.94,4.19c6.46,5.54,12.82,11.18,19.33,16.66c1.53,1.38,3.29,3.06,2.99,5.33c0.03,51.39,0,102.79,0.02,154.18
	c0,1.44,0,3.02-1.26,3.99c-4.29,4.43-9.27,8.11-13.82,12.25c-4.2,3.26-7.77,7.31-12.28,10.13c-22.38,0.36-44.78,0.06-67.16,0.15
	c-2.36,0.34-4.08-1.44-5.73-2.8c-7.02-6.31-14.16-12.48-21.18-18.78c-1.71-1.12-1.73-3.13-1.69-4.95
	c0.02-51.39,0-102.77,0.01-154.16c-0.58-3.55,3.07-5.27,5.15-7.44C316.55,213.58,323.18,207.09,330.52,201.51 M197.56,211.55
	c-5.46,5.21-11.76,9.53-16.91,15.04c-0.62,10.36-0.05,20.8-0.25,31.19c6.5,0.8,13.07,0.38,19.6,0.47c5.79-0.05,11.6,0.26,17.37-0.41
	c0.06-5.15,0.05-10.3,0.03-15.44c12.42-0.01,24.84,0.02,37.25-0.02c-0.03,14.66,0.07,29.31-0.05,43.97
	c-16.86,0.06-33.74-0.29-50.58,0.15c-4.9,3.14-8.83,7.54-13.36,11.15c-3.33,3.14-7.39,5.59-10.12,9.32
	c-0.32,31.78-0.07,63.59-0.12,95.37c37.05,0.02,74.09,0.07,111.13-0.02c-0.05-17.33-0.02-34.65-0.01-51.98
	c-12.28-0.02-24.56-0.03-36.84,0.01c-0.07,5.34-0.05,10.68-0.06,16.02c-12.44,0.05-24.88,0.06-37.32-0.01
	c-0.03-14.63-0.02-29.27,0-43.9c16.53-0.11,33.09,0.26,49.62-0.17c4.94-2.99,8.84-7.39,13.37-10.93c3.62-3.35,7.9-6.03,11.03-9.87
	c0.45-19.48,0.05-39,0.19-58.49c-0.16-5.46,0.34-10.96-0.22-16.4c-5.31-5.66-11.77-10.17-17.37-15.56
	c-2.67-2.12-5.11-5.44-8.85-5.35c-19.06-0.04-38.13,0.02-57.19-0.03C203.52,205.23,200.64,209.09,197.56,211.55 M197.03,205.01
	c2.22-1.98,4.62-4.51,7.86-4.32c20.75-0.01,41.49,0.01,62.23,0c2.47-0.25,4.57,1.31,6.3,2.88c7.18,6.49,14.69,12.62,21.79,19.21
	c1.3,0.99,1.56,2.58,1.47,4.13c0.01,24.71,0,49.41,0.01,74.11c-0.12,1.52,0.18,3.4-1.29,4.4c-7.47,6.53-15.16,12.83-22.6,19.41
	c-1.67,1.3-3.33,3.13-5.67,2.74c-14.88-0.02-29.76,0.02-44.64-0.03c-0.11,11.07-0.01,22.14-0.06,33.21
	c9.07-0.02,18.13,0.01,27.19-0.02c0.09-4.18-0.28-8.38,0.2-12.54c1.4-1.96,3.55-3.55,6.06-3.48c11.4-0.02,22.8-0.01,34.2,0
	c2.93-0.05,6.91,1.69,6.56,5.17c0.07,17.72,0.08,35.45-0.01,53.18c0.27,2.92-2.88,4.97-5.57,4.54
	c-37.04-0.02-74.08,0.06-111.11-0.04c-2.94,0.29-5-2.79-4.58-5.5c-0.03-31.37,0.01-62.75-0.02-94.13c0.09-1.75-0.2-3.86,1.43-5.02
	c6.66-6.41,13.99-12.09,20.8-18.33c2.1-1.8,4.39-3.97,7.35-3.89c14.9-0.03,29.8,0.02,44.7-0.02c-0.06-11.04,0.02-22.08-0.04-33.12
	c-8.98,0.04-17.96-0.05-26.93,0.05c-0.03,3.77,0.11,7.54-0.06,11.31c0.1,2.79-3.03,4.49-5.49,4.53
	c-12.06,0.05-24.13,0.03-36.19,0.01c-2.9,0.13-6.05-2.24-5.53-5.37c0.13-11.32-0.41-22.69,0.28-33.98
	C182.22,217.16,190.05,211.53,197.03,205.01 M80.71,162.36c4.75,3.55,9.42,7.22,14.32,10.57c2.99-4.02,5.98-8.05,8.93-12.1
	c-4.61-3.7-9.46-7.06-14.11-10.7C86.81,154.21,83.74,158.27,80.71,162.36 M80.99,136.94c4.18-0.9,8.34-2.26,12.63-2.55
	c7.88,5.62,15.77,11.37,23.3,17.46c1.55,4.29,1.42,9.21,1.82,13.8c6.2,1.83,12.43,3.53,18.66,5.25c1.26-1.52,2.52-3.03,3.75-4.57
	c3.91,2.96,7.89,5.83,11.79,8.82c-2.94,4.45-6.17,8.71-9.55,12.84c-11.45-2.82-22.68-6.44-34.14-9.25
	c-0.67,1.16-1.35,2.31-2.04,3.46c4.64,3.45,9.27,6.92,13.9,10.38c0.95-1.07,1.89-2.14,2.84-3.2c3.92,3.07,8.09,5.83,11.87,9.09
	c-4.69,6.13-9.29,12.35-13.93,18.53c-4.15-2.55-8-5.57-11.83-8.58c0.6-1.28,1.23-2.55,1.84-3.83
	c-13.32-10.06-26.82-19.89-40.06-30.06c-0.96,1.1-1.9,2.2-2.84,3.31c-3.93-2.95-7.87-5.9-11.83-8.81
	C64.84,158.14,72.95,147.55,80.99,136.94 M478.96,114.98c3.56-3.43,7.42-6.54,11.1-9.85c4.27,4.72,8.47,9.51,12.73,14.24
	c-3.68,9.5-8.15,18.66-11.88,28.13c9.68-2.92,19.41-5.69,29.04-8.76c4.35,4.75,8.52,9.65,12.85,14.41
	c-3.43,3.6-7.49,6.53-11.02,10.03c-0.98-1-1.95-2.01-2.92-3.01c-10.9,9.32-21.41,19.08-32.26,28.45c-1.92,1.65-3.73,3.42-5.51,5.21
	c0.89,1.09,1.78,2.18,2.68,3.27c-3.71,3.25-7.41,6.5-10.98,9.9c-5.46-5.73-10.74-11.64-15.75-17.77c3.75-3.17,7.33-6.52,10.94-9.84
	c1.01,0.95,2.02,1.91,3.03,2.87c7.35-6.34,14.47-12.96,21.85-19.28c-9.69,2.1-19,5.59-28.58,8.08c3.74-9.19,8-18.17,11.6-27.42
	c-7.3,6.41-14.54,12.88-21.82,19.31c0.7,1.25,1.42,2.49,2.14,3.74c-3.73,3.03-7.21,6.34-10.8,9.54
	c-5.45-5.71-10.57-11.74-15.79-17.66c3.78-3.2,7.34-6.65,11.18-9.78c1.03,1.04,2.08,2.08,3.13,3.11
	c12.53-11.2,25.05-22.43,37.71-33.48C480.73,117.27,479.84,116.13,478.96,114.98 M125.22,92.96c13.09-8.6,26.22-17.13,39.3-25.74
	c4.27,5.81,7.99,12,11.99,17.99c-4.18,2.74-8.41,5.41-12.53,8.25c-1.22-1.79-2.45-3.58-3.73-5.33c-3.62,2.2-7.13,4.57-10.65,6.93
	c3.26,4.87,6.37,9.85,9.66,14.71c5.75-3.35,11.06-7.41,16.85-10.68c3.49,3.55,5.42,8.32,8.57,12.17
	c-5.62,3.9-11.44,7.48-17.09,11.32c3.22,4.9,6.46,9.79,9.58,14.76c3.67-2.21,7.3-4.49,10.75-7.04c-1.13-1.78-2.27-3.56-3.46-5.3
	c4.16-2.81,8.38-5.55,12.61-8.25c3.77,5.83,7.79,11.51,11.36,17.46l0.04,0.79c-13.07,8.54-26.07,17.19-39.24,25.57
	c-2.56-4.28-5.44-8.36-8.08-12.6c1.17-0.72,2.33-1.45,3.49-2.17c-9.02-14.26-18.41-28.28-27.6-42.43c-1.28,0.73-2.56,1.47-3.83,2.21
	C130.75,101.25,127.84,97.2,125.22,92.96 M410.93,73.15c-2.58,5.32-5.16,10.64-7.76,15.95c4.56,2.14,9.02,4.51,13.63,6.56
	c2.87-5.16,5.15-10.61,7.92-15.82C420.13,77.6,415.58,75.26,410.93,73.15 M400.04,51.2c11.31,5.12,22.34,10.86,33.57,16.15
	c3.38,1.14,4,4.99,5.35,7.84c0.84,2.42,2.78,5.15,1.03,7.64c-4.08,8.04-7.78,16.29-12.02,24.24c-4.31,1.88-9.02,2.68-13.4,4.42
	c0.08,6.39-0.86,12.71-1.26,19.08c1.69,0.88,3.4,1.72,5.12,2.56c-2.21,4.47-4.36,8.97-6.5,13.48c-4.9-2.21-9.7-4.64-14.53-7.01
	c0.56-11.95,2.74-23.79,2.43-35.8c-1.22-0.2-2.43-0.4-3.64-0.59c-2.23,5.13-4.91,10.05-7.25,15.13c1.21,0.84,2.43,1.68,3.66,2.5
	c-2.34,4.29-4.39,8.74-6.57,13.11c-7.11-3.25-14.05-6.84-21.12-10.15c1.9-4.62,4.22-9.05,6.47-13.5c1.27,0.53,2.54,1.07,3.82,1.59
	c7.54-14.98,14.53-30.24,22.27-45.11c-1.23-0.84-2.46-1.66-3.68-2.49C395.87,59.92,398,55.58,400.04,51.2 M210.17,47.51
	c15.17-3.74,30.37-7.34,45.55-11.05c2.15,6.84,3.68,13.86,5.16,20.87c-4.8,1.19-9.55,2.56-14.42,3.42
	c-0.67-2.08-1.27-4.18-1.94-6.26c-3.99,1.24-8.08,2.12-12.12,3.17c1.49,5.7,2.78,11.45,4.29,17.14c6.52-1.48,12.98-3.23,19.55-4.52
	c1.56,4.66,2.3,9.53,3.6,14.26c-6.4,2.17-13.12,3.18-19.6,5.08c1.3,5.69,2.51,11.41,4.23,17c1.35-0.15,2.71-0.29,4.07-0.43
	c1.13,4.72,2.23,9.45,3.35,14.17c-7.65,1.95-15.28,4.15-23.06,5.45c-0.75-4.81-1.98-9.53-3.47-14.16c1.45-0.47,2.9-0.93,4.36-1.38
	c-4.04-16.27-8-32.56-11.81-48.88c-1.42,0.18-2.83,0.38-4.24,0.58C212.3,57.2,211.26,52.34,210.17,47.51 M313.36,100.13
	c5.64,0.36,11.24,1.3,16.89,1.43c0.56-8.73,2.05-17.38,2.39-26.14c1.2-7.95,2-15.96,2.18-24.01c-5.43-0.43-10.78-1.56-16.22-1.92
	C316.63,66.35,315.26,83.27,313.36,100.13 M304.5,41.49c3.17-2.52,6.41-5.03,9.89-7.12c9.15,0.24,18.28,1.55,27.39,2.52
	c3.3,2.7,5.93,6.11,8.99,9.08c-0.94,12.69-2.61,25.31-3.6,38c-1.44,8.5-1.28,17.16-2.8,25.62c-2.94,2.73-6.36,4.95-9.75,7.08
	c-9.49,0.53-18.88-1.73-28.31-2.42c-2.84-2.9-5.82-5.77-8.1-9.15c0.01-7.25,1.43-14.4,1.56-21.65c1.78-9.83,1.88-19.83,3.23-29.71
	C303.94,49.71,303.06,45.42,304.5,41.49"/>
<path id="S2" fill="#D30F0F" d="M82.97,296.43c-0.38,7.07-0.32,14.15-0.06,21.22c2.57,0,5.15,0,7.72,0
	c0.09-7.06,0.11-14.12-0.04-21.18C88.05,296.46,85.51,296.45,82.97,296.43 M73.45,289.43c5.85-0.03,11.7-0.25,17.55-0.03
	c3.41-0.04,6.88,3.04,6.61,6.58c0.07,7.03,0.07,14.07,0.01,21.1c0.25,3.36-2.83,5.42-4.15,8.19c-0.42,4.42,3.49,7.45,5.51,10.93
	c0.31,1.68,0.27,3.39,0.36,5.1c-2.56-0.11-5.29,0.29-7.7-0.78c-3.39-5.11-3.44-12.13-8.4-16.22c-1.63,5.75,1.78,11,2.02,16.66
	c-3.94,0.34-7.89,0.36-11.84,0.24c0.25-5.15,2.6-9.96,2.31-15.15c-0.07-7.38-0.04-14.75-0.01-22.12
	C75.92,298.96,73.7,294.35,73.45,289.43 M44.48,289.47c3.77-0.02,7.54-0.02,11.32,0.03c-0.7,7.65-0.97,15.42,1.37,22.85
	c2.1-7.44,1.73-15.19,1.25-22.81c3.69-0.08,7.39-0.09,11.08-0.07c-0.1,2.53-0.28,5.13-1.57,7.38c-2.64,5.06-3.49,10.75-4.86,16.23
	c-1.03,4.26-2.38,8.5-2.47,12.93c-0.32,5.08,2.1,9.76,2.39,14.79c-3.86,0.48-7.75,0.54-11.64,0.45c0.14-3.23,0.83-6.38,1.66-9.49
	c1.4-5.74-0.1-11.61-1.55-17.18c-1.67-6.24-2.24-12.93-5.69-18.54C44.48,294.08,44.61,291.7,44.48,289.47 M526.85,288.8
	c3.54-4.05,9.52-2.22,14.22-2.56c4.26-0.45,8.38,3.33,7.97,7.67c0.09,8.05,0.17,16.11-0.04,24.16c0.22,3.26-2.41,5.77-5.21,6.92
	c-3.58,0.76-7.28,0.36-10.9,0.43c-0.09,3.35-0.1,6.69-0.02,10.04c2.67-0.16,5.79,0.47,7.87-1.65c2.14-2.26,5.23-2.3,8.13-2.33
	c0.06,3.82,0.08,7.64,0.01,11.47c-7.86,0.49-15.77,0.56-23.62-0.1c-0.02-6.28-0.27-12.56-0.02-18.83c-0.12-3.05,2.65-5.3,5.28-6.24
	c3.44-0.57,6.97-0.29,10.45-0.38c0.06-7.97,0.19-15.94-0.12-23.9c-2.88,0.07-5.9,0.27-8.19,2.23c-2.12,1.84-4.96,1.75-7.59,1.79
	C525.41,294.62,524.41,291,526.85,288.8 M508.53,287.67c2.82-1.6,6.19-1.24,9.31-1.47c0.95,14.91,0.02,29.89,0.48,44.82
	c0.57,4.03,2.46,7.83,2.24,12c-4.33,0.31-8.67,0.31-12.98-0.13c-0.11-5.48,3.15-10.35,2.74-15.85c-0.17-8.7,0.11-17.41-0.12-26.11
	C510.24,296.44,505.95,292.04,508.53,287.67"/>
<path id="S3" fill="#99989A" d="M82.97,296.43c2.54,0.02,5.08,0.03,7.62,0.04c0.15,7.06,0.13,14.12,0.04,21.18
	c-2.57,0-5.15,0-7.72,0C82.65,310.58,82.59,303.5,82.97,296.43 M526.85,288.8c-2.44,2.2-1.44,5.82-1.78,8.72
	c2.63-0.04,5.47,0.05,7.59-1.79c2.29-1.96,5.31-2.16,8.19-2.23c0.31,7.96,0.18,15.93,0.12,23.9c-3.48,0.09-7.01-0.19-10.45,0.38
	c-2.63,0.94-5.4,3.19-5.28,6.24c-0.25,6.27,0,12.55,0.02,18.83c7.85,0.66,15.76,0.59,23.62,0.1c0.07-3.83,0.05-7.65-0.01-11.47
	c-2.9,0.03-5.99,0.07-8.13,2.33c-2.08,2.12-5.2,1.49-7.87,1.65c-0.08-3.35-0.07-6.69,0.02-10.04c3.62-0.07,7.32,0.33,10.9-0.43
	c2.8-1.15,5.43-3.66,5.21-6.92c0.21-8.05,0.13-16.11,0.04-24.16c0.41-4.34-3.71-8.12-7.97-7.67
	C536.37,286.58,530.39,284.75,526.85,288.8 M508.53,287.67c-2.58,4.37,1.71,8.77,1.67,13.26c0.23,8.7-0.05,17.41,0.12,26.11
	c0.41,5.5-2.85,10.37-2.74,15.85c4.31,0.44,8.65,0.44,12.98,0.13c0.22-4.17-1.67-7.97-2.24-12c-0.46-14.93,0.47-29.91-0.48-44.82
	C514.72,286.43,511.35,286.07,508.53,287.67 M519.44,268.74c10.22-1.37,21.03-0.46,30.16,4.67c13.02,6.85,22.48,20.24,24.06,34.93
	c1.8,13.42-2.53,27.57-11.93,37.39c-8.3,9.1-20.41,14.46-32.69,14.76c-13.02,0.43-26.05-5.1-34.99-14.54
	c-9.71-10.23-14.24-25-11.95-38.92C484.77,288.05,500.61,272.01,519.44,268.74 M73.45,289.43c0.25,4.92,2.47,9.53,2.27,14.5
	c-0.03,7.37-0.06,14.74,0.01,22.12c0.29,5.19-2.06,10-2.31,15.15c3.95,0.12,7.9,0.1,11.84-0.24c-0.24-5.66-3.65-10.91-2.02-16.66
	c4.96,4.09,5.01,11.11,8.4,16.22c2.41,1.07,5.14,0.67,7.7,0.78c-0.09-1.71-0.05-3.42-0.36-5.1c-2.02-3.48-5.93-6.51-5.51-10.93
	c1.32-2.77,4.4-4.83,4.15-8.19c0.06-7.03,0.06-14.07-0.01-21.1c0.27-3.54-3.2-6.62-6.61-6.58C85.15,289.18,79.3,289.4,73.45,289.43
	 M44.48,289.47c0.13,2.23,0,4.61,1.29,6.57c3.45,5.61,4.02,12.3,5.69,18.54c1.45,5.57,2.95,11.44,1.55,17.18
	c-0.83,3.11-1.52,6.26-1.66,9.49c3.89,0.09,7.78,0.03,11.64-0.45c-0.29-5.03-2.71-9.71-2.39-14.79c0.09-4.43,1.44-8.67,2.47-12.93
	c1.37-5.48,2.22-11.17,4.86-16.23c1.29-2.25,1.47-4.85,1.57-7.38c-3.69-0.02-7.39-0.01-11.08,0.07c0.48,7.62,0.85,15.37-1.25,22.81
	c-2.34-7.43-2.07-15.2-1.37-22.85C52.02,289.45,48.25,289.45,44.48,289.47 M64.52,268.8c10.2-1.43,21.04-0.63,30.18,4.49
	c12.75,6.63,22.2,19.46,24.28,33.74c1.63,10.6-0.38,21.77-5.99,30.95c-7.74,13.3-22.62,21.96-37.96,22.5
	c-12.83,0.55-25.8-4.54-34.74-13.78c-10.84-10.63-15.51-26.93-12.34-41.74C31.24,286.92,46.53,272.03,64.52,268.8 M345.71,242.43
	c-0.07,41.31-0.05,82.61-0.02,123.92c13.21,0.1,26.42,0.05,39.63,0.03c0.03-41.33,0.06-82.66-0.02-124
	C372.1,242.43,358.91,242.36,345.71,242.43 M332.62,206.61c1.53-1.14,3.51-0.88,5.3-0.96c19.06,0.08,38.11,0,57.17,0.03
	c3.01-0.23,5.24,2.07,7.35,3.87c5.9,5.44,12.25,10.38,18.1,15.88c1.18,0.81,1.19,2.25,1.23,3.55c0.02,50.02-0.03,100.05,0.02,150.07
	c0.65,4.18-3.74,6.05-6.22,8.52c-6.04,4.67-11.21,10.51-17.68,14.58c-13.27,0.53-26.6,0.05-39.89,0.21
	c-8.3-0.16-16.63,0.32-24.92-0.2c-3.51-1.67-6.1-4.73-9.03-7.2c-4.67-4.49-10.04-8.24-14.3-13.13c-0.37-1.91-0.27-3.87-0.29-5.8
	c0.17-49.67-0.17-99.37,0.17-149.03c2.74-3.98,7.12-6.47,10.56-9.81C324.41,213.75,328.16,209.75,332.62,206.61 M197.56,211.55
	c3.08-2.46,5.96-6.32,10.34-5.89c19.06,0.05,38.13-0.01,57.19,0.03c3.74-0.09,6.18,3.23,8.85,5.35c5.6,5.39,12.06,9.9,17.37,15.56
	c0.56,5.44,0.06,10.94,0.22,16.4c-0.14,19.49,0.26,39.01-0.19,58.49c-3.13,3.84-7.41,6.52-11.03,9.87
	c-4.53,3.54-8.43,7.94-13.37,10.93c-16.53,0.43-33.09,0.06-49.62,0.17c-0.02,14.63-0.03,29.27,0,43.9
	c12.44,0.07,24.88,0.06,37.32,0.01c0.01-5.34-0.01-10.68,0.06-16.02c12.28-0.04,24.56-0.03,36.84-0.01
	c-0.01,17.33-0.04,34.65,0.01,51.98c-37.04,0.09-74.08,0.04-111.13,0.02c0.05-31.78-0.2-63.59,0.12-95.37
	c2.73-3.73,6.79-6.18,10.12-9.32c4.53-3.61,8.46-8.01,13.36-11.15c16.84-0.44,33.72-0.09,50.58-0.15
	c0.12-14.66,0.02-29.31,0.05-43.97c-12.41,0.04-24.83,0.01-37.25,0.02c0.02,5.14,0.03,10.29-0.03,15.44
	c-5.77,0.67-11.58,0.36-17.37,0.41c-6.53-0.09-13.1,0.33-19.6-0.47c0.2-10.39-0.37-20.83,0.25-31.19
	C185.8,221.08,192.1,216.76,197.56,211.55"/>
</svg>
